filE0002.20bytes.txt
filE0002.20bytes.txt
filE0002.20bytes.txt
filE0002.20bytes.txt
filE0002.20bytes.txt
filE0002.20bytes.txt
filE0002.20bytes.txt
filE0002.20bytes.txt
filE0002.20bytes.txt
filE0002.20bytes.txt
filE0002.20bytes.txt
filE0002.20bytes.txt
filE0002.20bytes.txt
filE0002.20bytes.txt
filE0002.20bytes.txt
filE0002.20bytes.txt
filE0002.20bytes.txt
filE0002.20bytes.txt
filE0002.20bytes.txt
filE0002.20bytes.txt
filE0002.20bytes.txt
filE0002.20bytes.txt
filE0002.20bytes.txt
filE0002.20bytes.txt
filE0002.20bytes.txt
filE0002.20bytes.txt
filE0002.20bytes.txt
filE0002.20bytes.txt
filE0002.20bytes.txt
filE0002.20bytes.txt
filE0002.20bytes.txt
filE0002.20bytes.txt
filE0002.20bytes.txt
filE0002.20bytes.txt
filE0002.20bytes.txt
filE0002.20bytes.txt
filE0002.20bytes.txt
filE0002.20bytes.txt
filE0002.20bytes.txt
filE0002.20bytes.txt
filE0002.20bytes.txt
filE0002.20bytes.txt
filE0002.20bytes.txt
filE0002.20bytes.txt
filE0002.20bytes.txt
filE0002.20bytes.txt
filE0002.20bytes.txt
filE0002.20bytes.txt
filE0002.20bytes.txt
filE0002.20bytes.txt
filE0002.20bytes.txt
filE0002.20bytes.txt
filE0002.20bytes.txt
filE0002.20bytes.txt
filE0002.20bytes.txt
filE0002.20bytes.txt
filE0002.20bytes.txt
filE0002.20bytes.txt
filE0002.20bytes.txt
filE0002.20bytes.txt
filE0002.20bytes.txt
filE0002.20bytes.txt
filE0002.20bytes.txt
filE0002.20bytes.txt
filE0002.20bytes.txt
filE0002.20bytes.txt
filE0002.20bytes.txt
filE0002.20bytes.txt
filE0002.20bytes.txt
filE0002.20bytes.txt
filE0002.20bytes.txt
filE0002.20bytes.txt
filE0002.20bytes.txt
filE0002.20bytes.txt
filE0002.20bytes.txt
filE0002.20bytes.txt
filE0002.20bytes.txt
filE0002.20bytes.txt
filE0002.20bytes.txt
filE0002.20bytes.txt
filE0002.20bytes.txt
filE0002.20bytes.txt
filE0002.20bytes.txt
filE0002.20bytes.txt
filE0002.20bytes.txt
filE0002.20bytes.txt
filE0002.20bytes.txt
filE0002.20bytes.txt
filE0002.20bytes.txt
filE0002.20bytes.txt
filE0002.20bytes.txt
filE0002.20bytes.txt
filE0002.20bytes.txt
filE0002.20bytes.txt
filE0002.20bytes.txt
filE0002.20bytes.txt
filE0002.20bytes.txt
filE0002.20bytes.txt
filE0002.20bytes.txt
filE0002.20bytes.txt
filE0002.20bytes.txt
filE0002.20bytes.txt
filE0002.20bytes.txt
filE0002.20bytes.txt
filE0002.20bytes.txt
filE0002.20bytes.txt
filE0002.20bytes.txt
filE0002.20bytes.txt
filE0002.20bytes.txt
filE0002.20bytes.txt
filE0002.20bytes.txt
filE0002.20bytes.txt
filE0002.20bytes.txt
filE0002.20bytes.txt
filE0002.20bytes.txt
filE0002.20bytes.txt
filE0002.20bytes.txt
filE0002.20bytes.txt
filE0002.20bytes.txt
filE0002.20bytes.txt
filE0002.20bytes.txt
filE0002.20bytes.txt
filE0002.20bytes.txt
filE0002.20bytes.txt
filE0002.20bytes.txt
filE0002.20bytes.txt
filE0002.20bytes.txt
filE0002.20bytes.txt
filE0002.20bytes.txt
filE0002.20bytes.txt
filE0002.20bytes.txt
filE0002.20bytes.txt
filE0002.20bytes.txt
filE0002.20bytes.txt
filE0002.20bytes.txt
filE0002.20bytes.txt
filE0002.20bytes.txt
filE0002.20bytes.txt
filE0002.20bytes.txt
filE0002.20bytes.txt
filE0002.20bytes.txt
filE0002.20bytes.txt
filE0002.20bytes.txt
filE0002.20bytes.txt
filE0002.20bytes.txt
filE0002.20bytes.txt
filE0002.20bytes.txt
filE0002.20bytes.txt
filE0002.20bytes.txt
filE0002.20bytes.txt
filE0002.20bytes.txt
filE0002.20bytes.txt
filE0002.20bytes.txt
filE0002.20bytes.txt
filE0002.20bytes.txt
filE0002.20bytes.txt
filE0002.20bytes.txt
filE0002.20bytes.txt
filE0002.20bytes.txt
filE0002.20bytes.txt
filE0002.20bytes.txt
filE0002.20bytes.txt
filE0002.20bytes.txt
filE0002.20bytes.txt
filE0002.20bytes.txt
filE0002.20bytes.txt
filE0002.20bytes.txt
filE0002.20bytes.txt
filE0002.20bytes.txt
filE0002.20bytes.txt
filE0002.20bytes.txt
filE0002.20bytes.txt
filE0002.20bytes.txt
filE0002.20bytes.txt
filE0002.20bytes.txt
filE0002.20bytes.txt
filE0002.20bytes.txt
filE0002.20bytes.txt
filE0002.20bytes.txt
filE0002.20bytes.txt
filE0002.20bytes.txt
filE0002.20bytes.txt
filE0002.20bytes.txt
filE0002.20bytes.txt
filE0002.20bytes.txt
filE0002.20bytes.txt
filE0002.20bytes.txt
filE0002.20bytes.txt
filE0002.20bytes.txt
filE0002.20bytes.txt
filE0002.20bytes.txt
filE0002.20bytes.txt
filE0002.20bytes.txt
filE0002.20bytes.txt
filE0002.20bytes.txt
filE0002.20bytes.txt
filE0002.20bytes.txt
filE0002.20bytes.txt
filE0002.20bytes.txt
filE0002.20bytes.txt
filE0002.20bytes.txt
filE0002.20bytes.txt
filE0002.20bytes.txt
filE0002.20bytes.txt
filE0002.20bytes.txt
filE0002.20bytes.txt
filE0002.20bytes.txt
filE0002.20bytes.txt
filE0002.20bytes.txt
filE0002.20bytes.txt
filE0002.20bytes.txt
filE0002.20bytes.txt
filE0002.20bytes.txt
filE0002.20bytes.txt
filE0002.20bytes.txt
filE0002.20bytes.txt
filE0002.20bytes.txt
filE0002.20bytes.txt
filE0002.20bytes.txt
filE0002.20bytes.txt
filE0002.20bytes.txt
filE0002.20bytes.txt
filE0002.20bytes.txt
filE0002.20bytes.txt
filE0002.20bytes.txt
filE0002.20bytes.txt
filE0002.20bytes.txt
filE0002.20bytes.txt
filE0002.20bytes.txt
filE0002.20bytes.txt
filE0002.20bytes.txt
filE0002.20bytes.txt
filE0002.20bytes.txt
filE0002.20bytes.txt
filE0002.20bytes.txt
filE0002.20bytes.txt
filE0002.20bytes.txt
filE0002.20bytes.txt
filE0002.20bytes.txt
filE0002.20bytes.txt
filE0002.20bytes.txt
filE0002.20bytes.txt
filE0002.20bytes.txt
filE0002.20bytes.txt
filE0002.20bytes.txt
filE0002.20bytes.txt
filE0002.20bytes.txt
filE0002.20bytes.txt
filE0002.20bytes.txt
filE0002.20bytes.txt
filE0002.20bytes.txt
filE0002.20bytes.txt
filE0002.20bytes.txt
filE0002.20bytes.txt
filE0002.20bytes.txt
filE0002.20bytes.txt
filE0002.20bytes.txt
filE0002.20bytes.txt
filE0002.20bytes.txt
filE0002.20bytes.txt
filE0002.20bytes.txt
filE0002.20bytes.txt
filE0002.20bytes.txt
filE0002.20bytes.txt
filE0002.20bytes.txt
filE0002.20bytes.txt
filE0002.20bytes.txt
filE0002.20bytes.txt
filE0002.20bytes.txt
filE0002.20bytes.txt
filE0002.20bytes.txt
filE0002.20bytes.txt
filE0002.20bytes.txt
filE0002.20bytes.txt
filE0002.20bytes.txt
filE0002.20bytes.txt
filE0002.20bytes.txt
filE0002.20bytes.txt
filE0002.20bytes.txt
filE0002.20bytes.txt
filE0002.20bytes.txt
filE0002.20bytes.txt
filE0002.20bytes.txt
filE0002.20bytes.txt
filE0002.20bytes.txt
filE0002.20bytes.txt
filE0002.20bytes.txt
filE0002.20bytes.txt
filE0002.20bytes.txt
filE0002.20bytes.txt
filE0002.20bytes.txt
filE0002.20bytes.txt
filE0002.20bytes.txt
filE0002.20bytes.txt
filE0002.20bytes.txt
filE0002.20bytes.txt
filE0002.20bytes.txt
filE0002.20bytes.txt
filE0002.20bytes.txt
filE0002.20bytes.txt
filE0002.20bytes.txt
filE0002.20bytes.txt
filE0002.20bytes.txt
filE0002.20bytes.txt
filE0002.20bytes.txt
filE0002.20bytes.txt
filE0002.20bytes.txt
filE0002.20bytes.txt
filE0002.20bytes.txt
filE0002.20bytes.txt
filE0002.20bytes.txt
filE0002.20bytes.txt
filE0002.20bytes.txt
filE0002.20bytes.txt
filE0002.20bytes.txt
filE0002.20bytes.txt
filE0002.20bytes.txt
filE0002.20bytes.txt
filE0002.20bytes.txt
filE0002.20bytes.txt
filE0002.20bytes.txt
filE0002.20bytes.txt
filE0002.20bytes.txt
filE0002.20bytes.txt
filE0002.20bytes.txt
filE0002.20bytes.txt
filE0002.20bytes.txt
filE0002.20bytes.txt
filE0002.20bytes.txt
filE0002.20bytes.txt
filE0002.20bytes.txt
filE0002.20bytes.txt
filE0002.20bytes.txt
filE0002.20bytes.txt
filE0002.20bytes.txt
filE0002.20bytes.txt
filE0002.20bytes.txt
filE0002.20bytes.txt
filE0002.20bytes.txt
filE0002.20bytes.txt
filE0002.20bytes.txt
filE0002.20bytes.txt
filE0002.20bytes.txt
filE0002.20bytes.txt
filE0002.20bytes.txt
filE0002.20bytes.txt
filE0002.20bytes.txt
filE0002.20bytes.txt
filE0002.20bytes.txt
filE0002.20bytes.txt
filE0002.20bytes.txt
filE0002.20bytes.txt
filE0002.20bytes.txt
filE0002.20bytes.txt
filE0002.20bytes.txt
filE0002.20bytes.txt
filE0002.20bytes.txt
filE0002.20bytes.txt
filE0002.20bytes.txt
filE0002.20bytes.txt
filE0002.20bytes.txt
filE0002.20bytes.txt
filE0002.20bytes.txt
filE0002.20bytes.txt
filE0002.20bytes.txt
filE0002.20bytes.txt
filE0002.20bytes.txt
filE0002.20bytes.txt
filE0002.20bytes.txt
filE0002.20bytes.txt
filE0002.20bytes.txt
filE0002.20bytes.txt
filE0002.20bytes.txt
filE0002.20bytes.txt
filE0002.20bytes.txt
filE0002.20bytes.txt
filE0002.20bytes.txt
filE0002.20bytes.txt
filE0002.20bytes.txt
filE0002.20bytes.txt
filE0002.20bytes.txt
filE0002.20bytes.txt
filE0002.20bytes.txt
filE0002.20bytes.txt
filE0002.20bytes.txt
filE0002.20bytes.txt
filE0002.20bytes.txt
filE0002.20bytes.txt
filE0002.20bytes.txt
filE0002.20bytes.txt
filE0002.20bytes.txt
filE0002.20bytes.txt
filE0002.20bytes.txt
filE0002.20bytes.txt
filE0002.20bytes.txt
filE0002.20bytes.txt
filE0002.20bytes.txt
filE0002.20bytes.txt
filE0002.20bytes.txt
filE0002.20bytes.txt
filE0002.20bytes.txt
filE0002.20bytes.txt
filE0002.20bytes.txt
filE0002.20bytes.txt
filE0002.20bytes.txt
filE0002.20bytes.txt
filE0002.20bytes.txt
filE0002.20bytes.txt
filE0002.20bytes.txt
filE0002.20bytes.txt
filE0002.20bytes.txt
filE0002.20bytes.txt
filE0002.20bytes.txt
filE0002.20bytes.txt
filE0002.20bytes.txt
filE0002.20bytes.txt
filE0002.20bytes.txt
filE0002.20bytes.txt
filE0002.20bytes.txt
filE0002.20bytes.txt
filE0002.20bytes.txt
filE0002.20bytes.txt
filE0002.20bytes.txt
filE0002.20bytes.txt
filE0002.20bytes.txt
filE0002.20bytes.txt
filE0002.20bytes.txt
filE0002.20bytes.txt
filE0002.20bytes.txt
filE0002.20bytes.txt
filE0002.20bytes.txt
filE0002.20bytes.txt
filE0002.20bytes.txt
filE0002.20bytes.txt
filE0002.20bytes.txt
filE0002.20bytes.txt
filE0002.20bytes.txt
filE0002.20bytes.txt
filE0002.20bytes.txt
filE0002.20bytes.txt
filE0002.20bytes.txt
filE0002.20bytes.txt
filE0002.20bytes.txt
filE0002.20bytes.txt
filE0002.20bytes.txt
filE0002.20bytes.txt
filE0002.20bytes.txt
filE0002.20bytes.txt
filE0002.20bytes.txt
filE0002.20bytes.txt
filE0002.20bytes.txt
filE0002.20bytes.txt
filE0002.20bytes.txt
filE0002.20bytes.txt
filE0002.20bytes.txt
filE0002.20bytes.txt
filE0002.20bytes.txt
filE0002.20bytes.txt
filE0002.20bytes.txt
filE0002.20bytes.txt
filE0002.20bytes.txt
filE0002.20bytes.txt
filE0002.20bytes.txt
filE0002.20bytes.txt
filE0002.20bytes.txt
filE0002.20bytes.txt
filE0002.20bytes.txt
filE0002.20bytes.txt
filE0002.20bytes.txt
filE0002.20bytes.txt
filE0002.20bytes.txt
filE0002.20bytes.txt
filE0002.20bytes.txt
filE0002.20bytes.txt
filE0002.20bytes.txt
filE0002.20bytes.txt
filE0002.20bytes.txt
filE0002.20bytes.txt
filE0002.20bytes.txt
filE0002.20bytes.txt
filE0002.20bytes.txt
filE0002.20bytes.txt
filE0002.20bytes.txt
filE0002.20bytes.txt
filE0002.20bytes.txt
filE0002.20bytes.txt
filE0002.20bytes.txt
filE0002.20bytes.txt
filE0002.20bytes.txt
filE0002.20bytes.txt
filE0002.20bytes.txt
filE0002.20bytes.txt
filE0002.20bytes.txt
filE0002.20bytes.txt
filE0002.20bytes.txt
filE0002.20bytes.txt
filE0002.20bytes.txt
filE0002.20bytes.txt
filE0002.20bytes.txt
filE0002.20bytes.txt
filE0002.20bytes.txt
filE0002.20bytes.txt
filE0002.20bytes.txt
filE0002.20bytes.txt
filE0002.20bytes.txt
filE0002.20bytes.txt
filE0002.20bytes.txt
filE0002.20bytes.txt
filE0002.20bytes.txt
filE0002.20bytes.txt
filE0002.20bytes.txt
filE0002.20bytes.txt
filE0002.20bytes.txt
filE0002.20bytes.txt
filE0002.20bytes.txt
filE0002.20bytes.txt
filE0002.20bytes.txt
filE0002.20bytes.txt
filE0002.20bytes.txt
filE0002.20bytes.txt
filE0002.20bytes.txt
filE0002.20bytes.txt
filE0002.20bytes.txt
filE0002.20bytes.txt
filE0002.20bytes.txt
filE0002.20bytes.txt
filE0002.20bytes.txt
filE0002.20bytes.txt
filE0002.20bytes.txt
filE0002.20bytes.txt
filE0002.20bytes.txt
filE0002.20bytes.txt
filE0002.20bytes.txt
filE0002.20bytes.txt
filE0002.20bytes.txt
filE0002.20bytes.txt
filE0002.20bytes.txt
filE0002.20bytes.txt
filE0002.20bytes.txt
filE0002.20bytes.txt
filE0002.20bytes.txt
filE0002.20bytes.txt
filE0002.20bytes.txt
filE0002.20bytes.txt
filE0002.20bytes.txt
filE0002.20bytes.txt
filE0002.20bytes.txt
filE0002.20bytes.txt
filE0002.20bytes.txt
filE0002.20bytes.txt
filE0002.20bytes.txt
filE0002.20bytes.txt
filE0002.20bytes.txt
filE0002.20bytes.txt
filE0002.20bytes.txt
filE0002.20bytes.txt
filE0002.20bytes.txt
filE0002.20bytes.txt
filE0002.20bytes.txt
filE0002.20bytes.txt
filE0002.20bytes.txt
filE0002.20bytes.txt
filE0002.20bytes.txt
filE0002.20bytes.txt
filE0002.20bytes.txt
filE0002.20bytes.txt
filE0002.20bytes.txt
filE0002.20bytes.txt
filE0002.20bytes.txt
filE0002.20bytes.txt
filE0002.20bytes.txt
filE0002.20bytes.txt
filE0002.20bytes.txt
filE0002.20bytes.txt
filE0002.20bytes.txt
filE0002.20bytes.txt
filE0002.20bytes.txt
filE0002.20bytes.txt
filE0002.20bytes.txt
filE0002.20bytes.txt
filE0002.20bytes.txt
filE0002.20bytes.txt
filE0002.20bytes.txt
filE0002.20bytes.txt
filE0002.20bytes.txt
filE0002.20bytes.txt
filE0002.20bytes.txt
filE0002.20bytes.txt
filE0002.20bytes.txt
filE0002.20bytes.txt
filE0002.20bytes.txt
filE0002.20bytes.txt
filE0002.20bytes.txt
filE0002.20bytes.txt
filE0002.20bytes.txt
filE0002.20bytes.txt
filE0002.20bytes.txt
filE0002.20bytes.txt
filE0002.20bytes.txt
filE0002.20bytes.txt
filE0002.20bytes.txt
filE0002.20bytes.txt
filE0002.20bytes.txt
filE0002.20bytes.txt
filE0002.20bytes.txt
filE0002.20bytes.txt
filE0002.20bytes.txt
filE0002.20bytes.txt
filE0002.20bytes.txt
filE0002.20bytes.txt
filE0002.20bytes.txt
filE0002.20bytes.txt
filE0002.20bytes.txt
filE0002.20bytes.txt
filE0002.20bytes.txt
filE0002.20bytes.txt
filE0002.20bytes.txt
filE0002.20bytes.txt
filE0002.20bytes.txt
filE0002.20bytes.txt
filE0002.20bytes.txt
filE0002.20bytes.txt
filE0002.20bytes.txt
filE0002.20bytes.txt
filE0002.20bytes.txt
filE0002.20bytes.txt
filE0002.20bytes.txt
filE0002.20bytes.txt
filE0002.20bytes.txt
filE0002.20bytes.txt
filE0002.20bytes.txt
filE0002.20bytes.txt
filE0002.20bytes.txt
filE0002.20bytes.txt
filE0002.20bytes.txt
filE0002.20bytes.txt
filE0002.20bytes.txt
filE0002.20bytes.txt
filE0002.20bytes.txt
filE0002.20bytes.txt
filE0002.20bytes.txt
filE0002.20bytes.txt
filE0002.20bytes.txt
filE0002.20bytes.txt
filE0002.20bytes.txt
filE0002.20bytes.txt
filE0002.20bytes.txt
filE0002.20bytes.txt
filE0002.20bytes.txt
filE0002.20bytes.txt
filE0002.20bytes.txt
filE0002.20bytes.txt
filE0002.20bytes.txt
filE0002.20bytes.txt
filE0002.20bytes.txt
filE0002.20bytes.txt
filE0002.20bytes.txt
filE0002.20bytes.txt
filE0002.20bytes.txt
filE0002.20bytes.txt
filE0002.20bytes.txt
filE0002.20bytes.txt
filE0002.20bytes.txt
filE0002.20bytes.txt
filE0002.20bytes.txt
filE0002.20bytes.txt
filE0002.20bytes.txt
filE0002.20bytes.txt
filE0002.20bytes.txt
filE0002.20bytes.txt
filE0002.20bytes.txt
filE0002.20bytes.txt
filE0002.20bytes.txt
filE0002.20bytes.txt
filE0002.20bytes.txt
filE0002.20bytes.txt
filE0002.20bytes.txt
filE0002.20bytes.txt
filE0002.20bytes.txt
filE0002.20bytes.txt
filE0002.20bytes.txt
filE0002.20bytes.txt
filE0002.20bytes.txt
filE0002.20bytes.txt
filE0002.20bytes.txt
filE0002.20bytes.txt
filE0002.20bytes.txt
filE0002.20bytes.txt
filE0002.20bytes.txt
filE0002.20bytes.txt
filE0002.20bytes.txt
filE0002.20bytes.txt
filE0002.20bytes.txt
filE0002.20bytes.txt
filE0002.20bytes.txt
filE0002.20bytes.txt
filE0002.20bytes.txt
filE0002.20bytes.txt
filE0002.20bytes.txt
filE0002.20bytes.txt
filE0002.20bytes.txt
filE0002.20bytes.txt
filE0002.20bytes.txt
filE0002.20bytes.txt
filE0002.20bytes.txt
filE0002.20bytes.txt
filE0002.20bytes.txt
filE0002.20bytes.txt
filE0002.20bytes.txt
filE0002.20bytes.txt
filE0002.20bytes.txt
filE0002.20bytes.txt
filE0002.20bytes.txt
filE0002.20bytes.txt
filE0002.20bytes.txt
filE0002.20bytes.txt
filE0002.20bytes.txt
filE0002.20bytes.txt
filE0002.20bytes.txt
filE0002.20bytes.txt
filE0002.20bytes.txt
filE0002.20bytes.txt
filE0002.20bytes.txt
filE0002.20bytes.txt
filE0002.20bytes.txt
filE0002.20bytes.txt
filE0002.20bytes.txt
filE0002.20bytes.txt
filE0002.20bytes.txt
filE0002.20bytes.txt
filE0002.20bytes.txt
filE0002.20bytes.txt
filE0002.20bytes.txt
filE0002.20bytes.txt
filE0002.20bytes.txt
filE0002.20bytes.txt
filE0002.20bytes.txt
filE0002.20bytes.txt
filE0002.20bytes.txt
filE0002.20bytes.txt
filE0002.20bytes.txt
filE0002.20bytes.txt
filE0002.20bytes.txt
filE0002.20bytes.txt
filE0002.20bytes.txt
filE0002.20bytes.txt
filE0002.20bytes.txt
filE0002.20bytes.txt
filE0002.20bytes.txt
filE0002.20bytes.txt
filE0002.20bytes.txt
filE0002.20bytes.txt
filE0002.20bytes.txt
filE0002.20bytes.txt
filE0002.20bytes.txt
filE0002.20bytes.txt
filE0002.20bytes.txt
filE0002.20bytes.txt
filE0002.20bytes.txt
filE0002.20bytes.txt
filE0002.20bytes.txt
filE0002.20bytes.txt
filE0002.20bytes.txt
filE0002.20bytes.txt
filE0002.20bytes.txt
filE0002.20bytes.txt
filE0002.20bytes.txt
filE0002.20bytes.txt
filE0002.20bytes.txt
filE0002.20bytes.txt
filE0002.20bytes.txt
filE0002.20bytes.txt
filE0002.20bytes.txt
filE0002.20bytes.txt
filE0002.20bytes.txt
filE0002.20bytes.txt
filE0002.20bytes.txt
filE0002.20bytes.txt
filE0002.20bytes.txt
filE0002.20bytes.txt
filE0002.20bytes.txt
filE0002.20bytes.txt
filE0002.20bytes.txt
filE0002.20bytes.txt
filE0002.20bytes.txt
filE0002.20bytes.txt
filE0002.20bytes.txt
filE0002.20bytes.txt
filE0002.20bytes.txt
filE0002.20bytes.txt
filE0002.20bytes.txt
filE0002.20bytes.txt
filE0002.20bytes.txt
filE0002.20bytes.txt
filE0002.20bytes.txt
filE0002.20bytes.txt
filE0002.20bytes.txt
filE0002.20bytes.txt
filE0002.20bytes.txt
filE0002.20bytes.txt
filE0002.20bytes.txt
filE0002.20bytes.txt
filE0002.20bytes.txt
filE0002.20bytes.txt
filE0002.20bytes.txt
filE0002.20bytes.txt
filE0002.20bytes.txt
filE0002.20bytes.txt
filE0002.20bytes.txt
filE0002.20bytes.txt
filE0002.20bytes.txt
filE0002.20bytes.txt
filE0002.20bytes.txt
filE0002.20bytes.txt
filE0002.20bytes.txt
filE0002.20bytes.txt
filE0002.20bytes.txt
filE0002.20bytes.txt
filE0002.20bytes.txt
filE0002.20bytes.txt
filE0002.20bytes.txt
filE0002.20bytes.txt
filE0002.20bytes.txt
filE0002.20bytes.txt
filE0002.20bytes.txt
filE0002.20bytes.txt
filE0002.20bytes.txt
filE0002.20bytes.txt
filE0002.20bytes.txt
filE0002.20bytes.txt
filE0002.20bytes.txt
filE0002.20bytes.txt
filE0002.20bytes.txt
filE0002.20bytes.txt
filE0002.20bytes.txt
filE0002.20bytes.txt
filE0002.20bytes.txt
filE0002.20bytes.txt
filE0002.20bytes.txt
filE0002.20bytes.txt
filE0002.20bytes.txt
filE0002.20bytes.txt
filE0002.20bytes.txt
filE0002.20bytes.txt
filE0002.20bytes.txt
filE0002.20bytes.txt
filE0002.20bytes.txt
filE0002.20bytes.txt
filE0002.20bytes.txt
filE0002.20bytes.txt
filE0002.20bytes.txt
filE0002.20bytes.txt
filE0002.20bytes.txt
filE0002.20bytes.txt
filE0002.20bytes.txt
filE0002.20bytes.txt
filE0002.20bytes.txt
filE0002.20bytes.txt
filE0002.20bytes.txt
filE0002.20bytes.txt
filE0002.20bytes.txt
filE0002.20bytes.txt
filE0002.20bytes.txt
filE0002.20bytes.txt
filE0002.20bytes.txt
filE0002.20bytes.txt
filE0002.20bytes.txt
filE0002.20bytes.txt
filE0002.20bytes.txt
filE0002.20bytes.txt
filE0002.20bytes.txt
filE0002.20bytes.txt
filE0002.20bytes.txt
filE0002.20bytes.txt
filE0002.20bytes.txt
filE0002.20bytes.txt
filE0002.20bytes.txt
filE0002.20bytes.txt
filE0002.20bytes.txt
filE0002.20bytes.txt
filE0002.20bytes.txt
filE0002.20bytes.txt
filE0002.20bytes.txt
filE0002.20bytes.txt
filE0002.20bytes.txt
filE0002.20bytes.txt
filE0002.20bytes.txt
filE0002.20bytes.txt
filE0002.20bytes.txt
filE0002.20bytes.txt
filE0002.20bytes.txt
filE0002.20bytes.txt
filE0002.20bytes.txt
filE0002.20bytes.txt
filE0002.20bytes.txt
filE0002.20bytes.txt
filE0002.20bytes.txt
filE0002.20bytes.txt
filE0002.20bytes.txt
filE0002.20bytes.txt
filE0002.20bytes.txt
filE0002.20bytes.txt
filE0002.20bytes.txt
filE0002.20bytes.txt
filE0002.20bytes.txt
filE0002.20bytes.txt
filE0002.20bytes.txt
filE0002.20bytes.txt
filE0002.20bytes.txt
filE0002.20bytes.txt
filE0002.20bytes.txt
filE0002.20bytes.txt
filE0002.20bytes.txt
filE0002.20bytes.txt
filE0002.20bytes.txt
filE0002.20bytes.txt
filE0002.20bytes.txt
filE0002.20bytes.txt
filE0002.20bytes.txt
filE0002.20bytes.txt
filE0002.20bytes.txt
filE0002.20bytes.txt
filE0002.20bytes.txt
filE0002.20bytes.txt
filE0002.20bytes.txt
filE0002.20bytes.txt
filE0002.20bytes.txt
filE0002.20bytes.txt
filE0002.20bytes.txt
filE0002.20bytes.txt
filE0002.20bytes.txt
filE0002.20bytes.txt
filE0002.20bytes.txt
filE0002.20bytes.txt
filE0002.20bytes.txt
filE0002.20bytes.txt
filE0002.20bytes.txt
filE0002.20bytes.txt
filE0002.20bytes.txt
filE0002.20bytes.txt
filE0002.20bytes.txt
filE0002.20bytes.txt
filE0002.20bytes.txt
filE0002.20bytes.txt
filE0002.20bytes.txt
filE0002.20bytes.txt
filE0002.20bytes.txt
filE0002.20bytes.txt
filE0002.20bytes.txt
filE0002.20bytes.txt
filE0002.20bytes.txt
filE0002.20bytes.txt
filE0002.20bytes.txt
filE0002.20bytes.txt
filE0002.20bytes.txt
filE0002.20bytes.txt
filE0002.20bytes.txt
filE0002.20bytes.txt
filE0002.20bytes.txt
filE0002.20bytes.txt
filE0002.20bytes.txt
filE0002.20bytes.txt
filE0002.20bytes.txt
filE0002.20bytes.txt
filE0002.20bytes.txt
filE0002.20bytes.txt
filE0002.20bytes.txt
filE0002.20bytes.txt
filE0002.20bytes.txt
filE0002.20bytes.txt
filE0002.20bytes.txt
filE0002.20bytes.txt
filE0002.20bytes.txt
filE0002.20bytes.txt
filE0002.20bytes.txt
filE0002.20bytes.txt
filE0002.20bytes.txt
filE0002.20bytes.txt
filE0002.20bytes.txt
filE0002.20bytes.txt
filE0002.20bytes.txt
filE0002.20bytes.txt
filE0002.20bytes.txt
filE0002.20bytes.txt
filE0002.20bytes.txt
filE0002.20bytes.txt
filE0002.20bytes.txt
filE0002.20bytes.txt
filE0002.20bytes.txt
filE0002.20bytes.txt
filE0002.20bytes.txt
filE0002.20bytes.txt
filE0002.20bytes.txt
filE0002.20bytes.txt
filE0002.20bytes.txt
filE0002.20bytes.txt
filE0002.20bytes.txt
filE0002.20bytes.txt
filE0002.20bytes.txt
filE0002.20bytes.txt
filE0002.20bytes.txt
filE0002.20bytes.txt
filE0002.20bytes.txt
filE0002.20bytes.txt
filE0002.20bytes.txt
filE0002.20bytes.txt
filE0002.20bytes.txt
filE0002.20bytes.txt
filE0002.20bytes.txt
filE0002.20bytes.txt
filE0002.20bytes.txt
filE0002.20bytes.txt
filE0002.20bytes.txt
filE0002.20bytes.txt
filE0002.20bytes.txt
filE0002.20bytes.txt
filE0002.20bytes.txt
filE0002.20bytes.txt
filE0002.20bytes.txt
filE0002.20bytes.txt
filE0002.20bytes.txt
filE0002.20bytes.txt
filE0002.20bytes.txt
filE0002.20bytes.txt
filE0002.20bytes.txt
filE0002.20bytes.txt
filE0002.20bytes.txt
filE0002.20bytes.txt
filE0002.20bytes.txt
filE0002.20bytes.txt
filE0002.20bytes.txt
filE0002.20bytes.txt
filE0002.20bytes.txt
filE0002.20bytes.txt
filE0002.20bytes.txt
filE0002.20bytes.txt
filE0002.20bytes.txt
filE0002.20bytes.txt
filE0002.20bytes.txt
filE0002.20bytes.txt
filE0002.20bytes.txt
filE0002.20bytes.txt
filE0002.20bytes.txt
filE0002.20bytes.txt
filE0002.20bytes.txt
filE0002.20bytes.txt
filE0002.20bytes.txt
filE0002.20bytes.txt
filE0002.20bytes.txt
filE0002.20bytes.txt
filE0002.20bytes.txt
filE0002.20bytes.txt
filE0002.20bytes.txt
filE0002.20bytes.txt
filE0002.20bytes.txt
filE0002.20bytes.txt
filE0002.20bytes.txt
filE0002.20bytes.txt
filE0002.20bytes.txt
filE0002.20bytes.txt
filE0002.20bytes.txt
filE0002.20bytes.txt
filE0002.20bytes.txt
filE0002.20bytes.txt
filE0002.20bytes.txt
filE0002.20bytes.txt
filE0002.20bytes.txt
filE0002.20bytes.txt
filE0002.20bytes.txt
filE0002.20bytes.txt
filE0002.20bytes.txt
filE0002.20bytes.txt
filE0002.20bytes.txt
filE0002.20bytes.txt
filE0002.20bytes.txt
filE0002.20bytes.txt
filE0002.20bytes.txt
filE0002.20bytes.txt
filE0002.20bytes.txt
filE0002.20bytes.txt
filE0002.20bytes.txt
filE0002.20bytes.txt
filE0002.20bytes.txt
filE0002.20bytes.txt
filE0002.20bytes.txt
filE0002.20bytes.txt
filE0002.20bytes.txt
filE0002.20bytes.txt
filE0002.20bytes.txt
filE0002.20bytes.txt
filE0002.20bytes.txt
filE0002.20bytes.txt
filE0002.20bytes.txt
filE0002.20bytes.txt
filE0002.20bytes.txt
filE0002.20bytes.txt
filE0002.20bytes.txt
filE0002.20bytes.txt
filE0002.20bytes.txt
filE0002.20bytes.txt
filE0002.20bytes.txt
filE0002.20bytes.txt
filE0002.20bytes.txt
filE0002.20bytes.txt
filE0002.20bytes.txt
filE0002.20bytes.txt
filE0002.20bytes.txt
filE0002.20bytes.txt
filE0002.20bytes.txt
filE0002.20bytes.txt
filE0002.20bytes.txt
filE0002.20bytes.txt
filE0002.20bytes.txt
filE0002.20bytes.txt
filE0002.20bytes.txt
filE0002.20bytes.txt
filE0002.20bytes.txt
filE0002.20bytes.txt
filE0002.20bytes.txt
filE0002.20bytes.txt
filE0002.20bytes.txt
filE0002.20bytes.txt
filE0002.20bytes.txt
filE0002.20bytes.txt
filE0002.20bytes.txt
filE0002.20bytes.txt
filE0002.20bytes.txt
filE0002.20bytes.txt
filE0002.20bytes.txt
filE0002.20bytes.txt
filE0002.20bytes.txt
filE0002.20bytes.txt
filE0002.20bytes.txt
filE0002.20bytes.txt
filE0002.20bytes.txt
filE0002.20bytes.txt
filE0002.20bytes.txt
filE0002.20bytes.txt
filE0002.20bytes.txt
filE0002.20bytes.txt
filE0002.20bytes.txt
filE0002.20bytes.txt
filE0002.20bytes.txt
filE0002.20bytes.txt
filE0002.20bytes.txt
filE0002.20bytes.txt
filE0002.20bytes.txt
filE0002.20bytes.txt
filE0002.20bytes.txt
filE0002.20bytes.txt
filE0002.20bytes.txt
filE0002.20bytes.txt
filE0002.20bytes.txt
filE0002.20bytes.txt
filE0002.20bytes.txt
filE0002.20bytes.txt
filE0002.20bytes.txt
filE0002.20bytes.txt
filE0002.20bytes.txt
filE0002.20bytes.txt
filE0002.20bytes.txt
filE0002.20bytes.txt
filE0002.20bytes.txt
filE0002.20bytes.txt
filE0002.20bytes.txt
filE0002.20bytes.txt
filE0002.20bytes.txt
filE0002.20bytes.txt
filE0002.20bytes.txt
filE0002.20bytes.txt
filE0002.20bytes.txt
filE0002.20bytes.txt
filE0002.20bytes.txt
filE0002.20bytes.txt
filE0002.20bytes.txt
filE0002.20bytes.txt
filE0002.20bytes.txt
filE0002.20bytes.txt
filE0002.20bytes.txt
filE0002.20bytes.txt
filE0002.20bytes.txt
filE0002.20bytes.txt
filE0002.20bytes.txt
filE0002.20bytes.txt
filE0002.20bytes.txt
filE0002.20bytes.txt
filE0002.20bytes.txt
filE0002.20bytes.txt
filE0002.20bytes.txt
filE0002.20bytes.txt
filE0002.20bytes.txt
filE0002.20bytes.txt
filE0002.20bytes.txt
filE0002.20bytes.txt
filE0002.20bytes.txt
filE0002.20bytes.txt
filE0002.20bytes.txt
filE0002.20bytes.txt
filE0002.20bytes.txt
filE0002.20bytes.txt
filE0002.20bytes.txt
filE0002.20bytes.txt
filE0002.20bytes.txt
filE0002.20bytes.txt
filE0002.20bytes.txt
filE0002.20bytes.txt
filE0002.20bytes.txt
filE0002.20bytes.txt
filE0002.20bytes.txt
filE0002.20bytes.txt
filE0002.20bytes.txt
filE0002.20bytes.txt
filE0002.20bytes.txt
filE0002.20bytes.txt
filE0002.20bytes.txt
filE0002.20bytes.txt
filE0002.20bytes.txt
filE0002.20bytes.txt
filE0002.20bytes.txt
filE0002.20bytes.txt
filE0002.20bytes.txt
filE0002.20bytes.txt
filE0002.20bytes.txt
filE0002.20bytes.txt
filE0002.20bytes.txt
filE0002.20bytes.txt
filE0002.20bytes.txt
filE0002.20bytes.txt
filE0002.20bytes.txt
filE0002.20bytes.txt
filE0002.20bytes.txt
filE0002.20bytes.txt
filE0002.20bytes.txt
filE0002.20bytes.txt
filE0002.20bytes.txt
filE0002.20bytes.txt
filE0002.20bytes.txt
filE0002.20bytes.txt
filE0002.20bytes.txt
filE0002.20bytes.txt
filE0002.20bytes.txt
filE0002.20bytes.txt
filE0002.20bytes.txt
filE0002.20bytes.txt
filE0002.20bytes.txt
filE0002.20bytes.txt
filE0002.20bytes.txt
filE0002.20bytes.txt
filE0002.20bytes.txt
filE0002.20bytes.txt
filE0002.20bytes.txt
filE0002.20bytes.txt
filE0002.20bytes.txt
filE0002.20bytes.txt
filE0002.20bytes.txt
filE0002.20bytes.txt
filE0002.20bytes.txt
filE0002.20bytes.txt
filE0002.20bytes.txt
filE0002.20bytes.txt
filE0002.20bytes.txt
filE0002.20bytes.txt
filE0002.20bytes.txt
filE0002.20bytes.txt
filE0002.20bytes.txt
filE0002.20bytes.txt
filE0002.20bytes.txt
filE0002.20bytes.txt
filE0002.20bytes.txt
filE0002.20bytes.txt
filE0002.20bytes.txt
filE0002.20bytes.txt
filE0002.20bytes.txt
filE0002.20bytes.txt
filE0002.20bytes.txt
filE0002.20bytes.txt
filE0002.20bytes.txt
filE0002.20bytes.txt
filE0002.20bytes.txt
filE0002.20bytes.txt
filE0002.20bytes.txt
filE0002.20bytes.txt
filE0002.20bytes.txt
filE0002.20bytes.txt
filE0002.20bytes.txt
filE0002.20bytes.txt
filE0002.20bytes.txt
filE0002.20bytes.txt
filE0002.20bytes.txt
filE0002.20bytes.txt
filE0002.20bytes.txt
filE0002.20bytes.txt
filE0002.20bytes.txt
filE0002.20bytes.txt
filE0002.20bytes.txt
filE0002.20bytes.txt
filE0002.20bytes.txt
filE0002.20bytes.txt
filE0002.20bytes.txt
filE0002.20bytes.txt
filE0002.20bytes.txt
filE0002.20bytes.txt
filE0002.20bytes.txt
filE0002.20bytes.txt
filE0002.20bytes.txt
filE0002.20bytes.txt
filE0002.20bytes.txt
filE0002.20bytes.txt
filE0002.20bytes.txt
filE0002.20bytes.txt
filE0002.20bytes.txt
filE0002.20bytes.txt
filE0002.20bytes.txt
filE0002.20bytes.txt
filE0002.20bytes.txt
filE0002.20bytes.txt
filE0002.20bytes.txt
filE0002.20bytes.txt
filE0002.20bytes.txt
filE0002.20bytes.txt
filE0002.20bytes.txt
filE0002.20bytes.txt
filE0002.20bytes.txt
filE0002.20bytes.txt
filE0002.20bytes.txt
filE0002.20bytes.txt
filE0002.20bytes.txt
filE0002.20bytes.txt
filE0002.20bytes.txt
filE0002.20bytes.txt
filE0002.20bytes.txt
filE0002.20bytes.txt
filE0002.20bytes.txt
filE0002.20bytes.txt
filE0002.20bytes.txt
filE0002.20bytes.txt
filE0002.20bytes.txt
filE0002.20bytes.txt
filE0002.20bytes.txt
filE0002.20bytes.txt
filE0002.20bytes.txt
filE0002.20bytes.txt
filE0002.20bytes.txt
filE0002.20bytes.txt
filE0002.20bytes.txt
filE0002.20bytes.txt
filE0002.20bytes.txt
filE0002.20bytes.txt
filE0002.20bytes.txt
filE0002.20bytes.txt
filE0002.20bytes.txt
filE0002.20bytes.txt
filE0002.20bytes.txt
filE0002.20bytes.txt
filE0002.20bytes.txt
filE0002.20bytes.txt
filE0002.20bytes.txt
filE0002.20bytes.txt
filE0002.20bytes.txt
filE0002.20bytes.txt
filE0002.20bytes.txt
filE0002.20bytes.txt
filE0002.20bytes.txt
filE0002.20bytes.txt
filE0002.20bytes.txt
filE0002.20bytes.txt
filE0002.20bytes.txt
filE0002.20bytes.txt
filE0002.20bytes.txt
filE0002.20bytes.txt
filE0002.20bytes.txt
filE0002.20bytes.txt
filE0002.20bytes.txt
filE0002.20bytes.txt
filE0002.20bytes.txt
filE0002.20bytes.txt
filE0002.20bytes.txt
filE0002.20bytes.txt
filE0002.20bytes.txt
filE0002.20bytes.txt
filE0002.20bytes.txt
filE0002.20bytes.txt
filE0002.20bytes.txt
filE0002.20bytes.txt
filE0002.20bytes.txt
filE0002.20bytes.txt
filE0002.20bytes.txt
filE0002.20bytes.txt
filE0002.20bytes.txt
filE0002.20bytes.txt
filE0002.20bytes.txt
filE0002.20bytes.txt
filE0002.20bytes.txt
filE0002.20bytes.txt
filE0002.20bytes.txt
filE0002.20bytes.txt
filE0002.20bytes.txt
filE0002.20bytes.txt
filE0002.20bytes.txt
filE0002.20bytes.txt
filE0002.20bytes.txt
filE0002.20bytes.txt
filE0002.20bytes.txt
filE0002.20bytes.txt
filE0002.20bytes.txt
filE0002.20bytes.txt
filE0002.20bytes.txt
filE0002.20bytes.txt
filE0002.20bytes.txt
filE0002.20bytes.txt
filE0002.20bytes.txt
filE0002.20bytes.txt
filE0002.20bytes.txt
filE0002.20bytes.txt
filE0002.20bytes.txt
filE0002.20bytes.txt
filE0002.20bytes.txt
filE0002.20bytes.txt
filE0002.20bytes.txt
filE0002.20bytes.txt
filE0002.20bytes.txt
filE0002.20bytes.txt
filE0002.20bytes.txt
filE0002.20bytes.txt
filE0002.20bytes.txt
filE0002.20bytes.txt
filE0002.20bytes.txt
filE0002.20bytes.txt
filE0002.20bytes.txt
filE0002.20bytes.txt
filE0002.20bytes.txt
filE0002.20bytes.txt
filE0002.20bytes.txt
filE0002.20bytes.txt
filE0002.20bytes.txt
filE0002.20bytes.txt
filE0002.20bytes.txt
filE0002.20bytes.txt
filE0002.20bytes.txt
filE0002.20bytes.txt
filE0002.20bytes.txt
filE0002.20bytes.txt
filE0002.20bytes.txt
filE0002.20bytes.txt
filE0002.20bytes.txt
filE0002.20bytes.txt
filE0002.20bytes.txt
filE0002.20bytes.txt
filE0002.20bytes.txt
filE0002.20bytes.txt
filE0002.20bytes.txt
filE0002.20bytes.txt
filE0002.20bytes.txt
filE0002.20bytes.txt
filE0002.20bytes.txt
filE0002.20bytes.txt
filE0002.20bytes.txt
filE0002.20bytes.txt
filE0002.20bytes.txt
filE0002.20bytes.txt
filE0002.20bytes.txt
filE0002.20bytes.txt
filE0002.20bytes.txt
filE0002.20bytes.txt
filE0002.20bytes.txt
filE0002.20bytes.txt
filE0002.20bytes.txt
filE0002.20bytes.txt
filE0002.20bytes.txt
filE0002.20bytes.txt
filE0002.20bytes.txt
filE0002.20bytes.txt
filE0002.20bytes.txt
filE0002.20bytes.txt
filE0002.20bytes.txt
filE0002.20bytes.txt
filE0002.20bytes.txt
filE0002.20bytes.txt
filE0002.20bytes.txt
filE0002.20bytes.txt
filE0002.20bytes.txt
filE0002.20bytes.txt
filE0002.20bytes.txt
filE0002.20bytes.txt
filE0002.20bytes.txt
filE0002.20bytes.txt
filE0002.20bytes.txt
filE0002.20bytes.txt
filE0002.20bytes.txt
filE0002.20bytes.txt
filE0002.20bytes.txt
filE0002.20bytes.txt
filE0002.20bytes.txt
filE0002.20bytes.txt
filE0002.20bytes.txt
filE0002.20bytes.txt
filE0002.20bytes.txt
filE0002.20bytes.txt
filE0002.20bytes.txt
filE0002.20bytes.txt
filE0002.20bytes.txt
filE0002.20bytes.txt
filE0002.20bytes.txt
filE0002.20bytes.txt
filE0002.20bytes.txt
filE0002.20bytes.txt
filE0002.20bytes.txt
filE0002.20bytes.txt
filE0002.20bytes.txt
filE0002.20bytes.txt
filE0002.20bytes.txt
filE0002.20bytes.txt
filE0002.20bytes.txt
filE0002.20bytes.txt
filE0002.20bytes.txt
filE0002.20bytes.txt
filE0002.20bytes.txt
filE0002.20bytes.txt
filE0002.20bytes.txt
filE0002.20bytes.txt
filE0002.20bytes.txt
filE0002.20bytes.txt
filE0002.20bytes.txt
filE0002.20bytes.txt
filE0002.20bytes.txt
filE0002.20bytes.txt
filE0002.20bytes.txt
filE0002.20bytes.txt
filE0002.20bytes.txt
filE0002.20bytes.txt
filE0002.20bytes.txt
filE0002.20bytes.txt
filE0002.20bytes.txt
filE0002.20bytes.txt
filE0002.20bytes.txt
filE0002.20bytes.txt
filE0002.20bytes.txt
filE0002.20bytes.txt
filE0002.20bytes.txt
filE0002.20bytes.txt
filE0002.20bytes.txt
filE0002.20bytes.txt
filE0002.20bytes.txt
filE0002.20bytes.txt
filE0002.20bytes.txt
filE0002.20bytes.txt
filE0002.20bytes.txt
filE0002.20bytes.txt
filE0002.20bytes.txt
filE0002.20bytes.txt
filE0002.20bytes.txt
filE0002.20bytes.txt
filE0002.20bytes.txt
filE0002.20bytes.txt
filE0002.20bytes.txt
filE0002.20bytes.txt
filE0002.20bytes.txt
filE0002.20bytes.txt
filE0002.20bytes.txt
filE0002.20bytes.txt
filE0002.20bytes.txt
filE0002.20bytes.txt
filE0002.20bytes.txt
filE0002.20bytes.txt
filE0002.20bytes.txt
filE0002.20bytes.txt
filE0002.20bytes.txt
filE0002.20bytes.txt
filE0002.20bytes.txt
filE0002.20bytes.txt
filE0002.20bytes.txt
filE0002.20bytes.txt
filE0002.20bytes.txt
filE0002.20bytes.txt
filE0002.20bytes.txt
filE0002.20bytes.txt
filE0002.20bytes.txt
filE0002.20bytes.txt
filE0002.20bytes.txt
filE0002.20bytes.txt
filE0002.20bytes.txt
filE0002.20bytes.txt
filE0002.20bytes.txt
filE0002.20bytes.txt
filE0002.20bytes.txt
filE0002.20bytes.txt
filE0002.20bytes.txt
filE0002.20bytes.txt
filE0002.20bytes.txt
filE0002.20bytes.txt
filE0002.20bytes.txt
filE0002.20bytes.txt
filE0002.20bytes.txt
filE0002.20bytes.txt
filE0002.20bytes.txt
filE0002.20bytes.txt
filE0002.20bytes.txt
filE0002.20bytes.txt
filE0002.20bytes.txt
filE0002.20bytes.txt
filE0002.20bytes.txt
filE0002.20bytes.txt
filE0002.20bytes.txt
filE0002.20bytes.txt
filE0002.20bytes.txt
filE0002.20bytes.txt
filE0002.20bytes.txt
filE0002.20bytes.txt
filE0002.20bytes.txt
filE0002.20bytes.txt
filE0002.20bytes.txt
filE0002.20bytes.txt
filE0002.20bytes.txt
filE0002.20bytes.txt
filE0002.20bytes.txt
filE0002.20bytes.txt
filE0002.20bytes.txt
filE0002.20bytes.txt
filE0002.20bytes.txt
filE0002.20bytes.txt
filE0002.20bytes.txt
filE0002.20bytes.txt
filE0002.20bytes.txt
filE0002.20bytes.txt
filE0002.20bytes.txt
filE0002.20bytes.txt
filE0002.20bytes.txt
filE0002.20bytes.txt
filE0002.20bytes.txt
filE0002.20bytes.txt
filE0002.20bytes.txt
filE0002.20bytes.txt
filE0002.20bytes.txt
filE0002.20bytes.txt
filE0002.20bytes.txt
filE0002.20bytes.txt
filE0002.20bytes.txt
filE0002.20bytes.txt
filE0002.20bytes.txt
filE0002.20bytes.txt
filE0002.20bytes.txt
filE0002.20bytes.txt
filE0002.20bytes.txt
filE0002.20bytes.txt
filE0002.20bytes.txt
filE0002.20bytes.txt
filE0002.20bytes.txt
filE0002.20bytes.txt
filE0002.20bytes.txt
filE0002.20bytes.txt
filE0002.20bytes.txt
filE0002.20bytes.txt
filE0002.20bytes.txt
filE0002.20bytes.txt
filE0002.20bytes.txt
filE0002.20bytes.txt
filE0002.20bytes.txt
filE0002.20bytes.txt
filE0002.20bytes.txt
filE0002.20bytes.txt
filE0002.20bytes.txt
filE0002.20bytes.txt
filE0002.20bytes.txt
filE0002.20bytes.txt
filE0002.20bytes.txt
filE0002.20bytes.txt
filE0002.20bytes.txt
filE0002.20bytes.txt
filE0002.20bytes.txt
filE0002.20bytes.txt
filE0002.20bytes.txt
filE0002.20bytes.txt
filE0002.20bytes.txt
filE0002.20bytes.txt
filE0002.20bytes.txt
filE0002.20bytes.txt
filE0002.20bytes.txt
filE0002.20bytes.txt
filE0002.20bytes.txt
filE0002.20bytes.txt
filE0002.20bytes.txt
filE0002.20bytes.txt
filE0002.20bytes.txt
filE0002.20bytes.txt
filE0002.20bytes.txt
filE0002.20bytes.txt
filE0002.20bytes.txt
filE0002.20bytes.txt
filE0002.20bytes.txt
filE0002.20bytes.txt
filE0002.20bytes.txt
filE0002.20bytes.txt
filE0002.20bytes.txt
filE0002.20bytes.txt
filE0002.20bytes.txt
filE0002.20bytes.txt
filE0002.20bytes.txt
filE0002.20bytes.txt
filE0002.20bytes.txt
filE0002.20bytes.txt
filE0002.20bytes.txt
filE0002.20bytes.txt
filE0002.20bytes.txt
filE0002.20bytes.txt
filE0002.20bytes.txt
filE0002.20bytes.txt
filE0002.20bytes.txt
filE0002.20bytes.txt
filE0002.20bytes.txt
filE0002.20bytes.txt
filE0002.20bytes.txt
filE0002.20bytes.txt
filE0002.20bytes.txt
filE0002.20bytes.txt
filE0002.20bytes.txt
filE0002.20bytes.txt
filE0002.20bytes.txt
filE0002.20bytes.txt
filE0002.20bytes.txt
filE0002.20bytes.txt
filE0002.20bytes.txt
filE0002.20bytes.txt
filE0002.20bytes.txt
filE0002.20bytes.txt
filE0002.20bytes.txt
filE0002.20bytes.txt
filE0002.20bytes.txt
filE0002.20bytes.txt
filE0002.20bytes.txt
filE0002.20bytes.txt
filE0002.20bytes.txt
filE0002.20bytes.txt
filE0002.20bytes.txt
filE0002.20bytes.txt
filE0002.20bytes.txt
filE0002.20bytes.txt
filE0002.20bytes.txt
filE0002.20bytes.txt
filE0002.20bytes.txt
filE0002.20bytes.txt
filE0002.20bytes.txt
filE0002.20bytes.txt
filE0002.20bytes.txt
filE0002.20bytes.txt
filE0002.20bytes.txt
filE0002.20bytes.txt
filE0002.20bytes.txt
filE0002.20bytes.txt
filE0002.20bytes.txt
filE0002.20bytes.txt
filE0002.20bytes.txt
filE0002.20bytes.txt
filE0002.20bytes.txt
filE0002.20bytes.txt
filE0002.20bytes.txt
filE0002.20bytes.txt
filE0002.20bytes.txt
filE0002.20bytes.txt
filE0002.20bytes.txt
filE0002.20bytes.txt
filE0002.20bytes.txt
filE0002.20bytes.txt
filE0002.20bytes.txt
filE0002.20bytes.txt
filE0002.20bytes.txt
filE0002.20bytes.txt
filE0002.20bytes.txt
filE0002.20bytes.txt
filE0002.20bytes.txt
filE0002.20bytes.txt
filE0002.20bytes.txt
filE0002.20bytes.txt
filE0002.20bytes.txt
filE0002.20bytes.txt
filE0002.20bytes.txt
filE0002.20bytes.txt
filE0002.20bytes.txt
filE0002.20bytes.txt
filE0002.20bytes.txt
filE0002.20bytes.txt
filE0002.20bytes.txt
filE0002.20bytes.txt
filE0002.20bytes.txt
filE0002.20bytes.txt
filE0002.20bytes.txt
filE0002.20bytes.txt
filE0002.20bytes.txt
filE0002.20bytes.txt
filE0002.20bytes.txt
filE0002.20bytes.txt
filE0002.20bytes.txt
filE0002.20bytes.txt
filE0002.20bytes.txt
filE0002.20bytes.txt
filE0002.20bytes.txt
filE0002.20bytes.txt
filE0002.20bytes.txt
filE0002.20bytes.txt
filE0002.20bytes.txt
filE0002.20bytes.txt
filE0002.20bytes.txt
filE0002.20bytes.txt
filE0002.20bytes.txt
filE0002.20bytes.txt
filE0002.20bytes.txt
filE0002.20bytes.txt
filE0002.20bytes.txt
filE0002.20bytes.txt
filE0002.20bytes.txt
filE0002.20bytes.txt
filE0002.20bytes.txt
filE0002.20bytes.txt
filE0002.20bytes.txt
filE0002.20bytes.txt
filE0002.20bytes.txt
filE0002.20bytes.txt
filE0002.20bytes.txt
filE0002.20bytes.txt
filE0002.20bytes.txt
filE0002.20bytes.txt
filE0002.20bytes.txt
filE0002.20bytes.txt
filE0002.20bytes.txt
filE0002.20bytes.txt
filE0002.20bytes.txt
filE0002.20bytes.txt
filE0002.20bytes.txt
filE0002.20bytes.txt
filE0002.20bytes.txt
filE0002.20bytes.txt
filE0002.20bytes.txt
filE0002.20bytes.txt
filE0002.20bytes.txt
filE0002.20bytes.txt
filE0002.20bytes.txt
filE0002.20bytes.txt
filE0002.20bytes.txt
filE0002.20bytes.txt
filE0002.20bytes.txt
filE0002.20bytes.txt
filE0002.20bytes.txt
filE0002.20bytes.txt
filE0002.20bytes.txt
filE0002.20bytes.txt
filE0002.20bytes.txt
filE0002.20bytes.txt
filE0002.20bytes.txt
filE0002.20bytes.txt
filE0002.20bytes.txt
filE0002.20bytes.txt
filE0002.20bytes.txt
filE0002.20bytes.txt
filE0002.20bytes.txt
filE0002.20bytes.txt
filE0002.20bytes.txt
filE0002.20bytes.txt
filE0002.20bytes.txt
filE0002.20bytes.txt
filE0002.20bytes.txt
filE0002.20bytes.txt
filE0002.20bytes.txt
filE0002.20bytes.txt
filE0002.20bytes.txt
filE0002.20bytes.txt
filE0002.20bytes.txt
filE0002.20bytes.txt
filE0002.20bytes.txt
filE0002.20bytes.txt
filE0002.20bytes.txt
filE0002.20bytes.txt
filE0002.20bytes.txt
filE0002.20bytes.txt
filE0002.20bytes.txt
filE0002.20bytes.txt
filE0002.20bytes.txt
filE0002.20bytes.txt
filE0002.20bytes.txt
filE0002.20bytes.txt
filE0002.20bytes.txt
filE0002.20bytes.txt
filE0002.20bytes.txt
filE0002.20bytes.txt
filE0002.20bytes.txt
filE0002.20bytes.txt
filE0002.20bytes.txt
filE0002.20bytes.txt
filE0002.20bytes.txt
filE0002.20bytes.txt
filE0002.20bytes.txt
filE0002.20bytes.txt
filE0002.20bytes.txt
filE0002.20bytes.txt
filE0002.20bytes.txt
filE0002.20bytes.txt
filE0002.20bytes.txt
filE0002.20bytes.txt
filE0002.20bytes.txt
filE0002.20bytes.txt
filE0002.20bytes.txt
filE0002.20bytes.txt
filE0002.20bytes.txt
filE0002.20bytes.txt
filE0002.20bytes.txt
filE0002.20bytes.txt
filE0002.20bytes.txt
filE0002.20bytes.txt
filE0002.20bytes.txt
filE0002.20bytes.txt
filE0002.20bytes.txt
filE0002.20bytes.txt
filE0002.20bytes.txt
filE0002.20bytes.txt
filE0002.20bytes.txt
filE0002.20bytes.txt
filE0002.20bytes.txt
filE0002.20bytes.txt
filE0002.20bytes.txt
filE0002.20bytes.txt
filE0002.20bytes.txt
filE0002.20bytes.txt
filE0002.20bytes.txt
filE0002.20bytes.txt
filE0002.20bytes.txt
filE0002.20bytes.txt
filE0002.20bytes.txt
filE0002.20bytes.txt
filE0002.20bytes.txt
filE0002.20bytes.txt
filE0002.20bytes.txt
filE0002.20bytes.txt
filE0002.20bytes.txt
filE0002.20bytes.txt
filE0002.20bytes.txt
filE0002.20bytes.txt
filE0002.20bytes.txt
filE0002.20bytes.txt
filE0002.20bytes.txt
filE0002.20bytes.txt
filE0002.20bytes.txt
filE0002.20bytes.txt
filE0002.20bytes.txt
filE0002.20bytes.txt
filE0002.20bytes.txt
filE0002.20bytes.txt
filE0002.20bytes.txt
filE0002.20bytes.txt
filE0002.20bytes.txt
filE0002.20bytes.txt
filE0002.20bytes.txt
filE0002.20bytes.txt
filE0002.20bytes.txt
filE0002.20bytes.txt
filE0002.20bytes.txt
filE0002.20bytes.txt
filE0002.20bytes.txt
filE0002.20bytes.txt
filE0002.20bytes.txt
filE0002.20bytes.txt
filE0002.20bytes.txt
filE0002.20bytes.txt
filE0002.20bytes.txt
filE0002.20bytes.txt
filE0002.20bytes.txt
filE0002.20bytes.txt
filE0002.20bytes.txt
filE0002.20bytes.txt
filE0002.20bytes.txt
filE0002.20bytes.txt
filE0002.20bytes.txt
filE0002.20bytes.txt
filE0002.20bytes.txt
filE0002.20bytes.txt
filE0002.20bytes.txt
filE0002.20bytes.txt
filE0002.20bytes.txt
filE0002.20bytes.txt
filE0002.20bytes.txt
filE0002.20bytes.txt
filE0002.20bytes.txt
filE0002.20bytes.txt
filE0002.20bytes.txt
filE0002.20bytes.txt
filE0002.20bytes.txt
filE0002.20bytes.txt
filE0002.20bytes.txt
filE0002.20bytes.txt
filE0002.20bytes.txt
filE0002.20bytes.txt
filE0002.20bytes.txt
filE0002.20bytes.txt
filE0002.20bytes.txt
filE0002.20bytes.txt
filE0002.20bytes.txt
filE0002.20bytes.txt
filE0002.20bytes.txt
filE0002.20bytes.txt
filE0002.20bytes.txt
filE0002.20bytes.txt
filE0002.20bytes.txt
filE0002.20bytes.txt
filE0002.20bytes.txt
filE0002.20bytes.txt
filE0002.20bytes.txt
filE0002.20bytes.txt
filE0002.20bytes.txt
filE0002.20bytes.txt
filE0002.20bytes.txt
filE0002.20bytes.txt
filE0002.20bytes.txt
filE0002.20bytes.txt
filE0002.20bytes.txt
filE0002.20bytes.txt
filE0002.20bytes.txt
filE0002.20bytes.txt
filE0002.20bytes.txt
filE0002.20bytes.txt
filE0002.20bytes.txt
filE0002.20bytes.txt
filE0002.20bytes.txt
filE0002.20bytes.txt
filE0002.20bytes.txt
filE0002.20bytes.txt
filE0002.20bytes.txt
filE0002.20bytes.txt
filE0002.20bytes.txt
filE0002.20bytes.txt
filE0002.20bytes.txt
filE0002.20bytes.txt
filE0002.20bytes.txt
filE0002.20bytes.txt
filE0002.20bytes.txt
filE0002.20bytes.txt
filE0002.20bytes.txt
filE0002.20bytes.txt
filE0002.20bytes.txt
filE0002.20bytes.txt
filE0002.20bytes.txt
filE0002.20bytes.txt
filE0002.20bytes.txt
filE0002.20bytes.txt
filE0002.20bytes.txt
filE0002.20bytes.txt
filE0002.20bytes.txt
filE0002.20bytes.txt
filE0002.20bytes.txt
filE0002.20bytes.txt
filE0002.20bytes.txt
filE0002.20bytes.txt
filE0002.20bytes.txt
filE0002.20bytes.txt
filE0002.20bytes.txt
filE0002.20bytes.txt
filE0002.20bytes.txt
filE0002.20bytes.txt
filE0002.20bytes.txt
filE0002.20bytes.txt
filE0002.20bytes.txt
filE0002.20bytes.txt
filE0002.20bytes.txt
filE0002.20bytes.txt
filE0002.20bytes.txt
filE0002.20bytes.txt
filE0002.20bytes.txt
filE0002.20bytes.txt
filE0002.20bytes.txt
filE0002.20bytes.txt
filE0002.20bytes.txt
filE0002.20bytes.txt
filE0002.20bytes.txt
filE0002.20bytes.txt
filE0002.20bytes.txt
filE0002.20bytes.txt
filE0002.20bytes.txt
filE0002.20bytes.txt
filE0002.20bytes.txt
filE0002.20bytes.txt
filE0002.20bytes.txt
filE0002.20bytes.txt
filE0002.20bytes.txt
filE0002.20bytes.txt
filE0002.20bytes.txt
filE0002.20bytes.txt
filE0002.20bytes.txt
filE0002.20bytes.txt
filE0002.20bytes.txt
filE0002.20bytes.txt
filE0002.20bytes.txt
filE0002.20bytes.txt
filE0002.20bytes.txt
filE0002.20bytes.txt
filE0002.20bytes.txt
filE0002.20bytes.txt
filE0002.20bytes.txt
filE0002.20bytes.txt
filE0002.20bytes.txt
filE0002.20bytes.txt
filE0002.20bytes.txt
filE0002.20bytes.txt
filE0002.20bytes.txt
filE0002.20bytes.txt
filE0002.20bytes.txt
filE0002.20bytes.txt
filE0002.20bytes.txt
filE0002.20bytes.txt
filE0002.20bytes.txt
filE0002.20bytes.txt
filE0002.20bytes.txt
filE0002.20bytes.txt
filE0002.20bytes.txt
filE0002.20bytes.txt
filE0002.20bytes.txt
filE0002.20bytes.txt
filE0002.20bytes.txt
filE0002.20bytes.txt
filE0002.20bytes.txt
filE0002.20bytes.txt
filE0002.20bytes.txt
filE0002.20bytes.txt
filE0002.20bytes.txt
filE0002.20bytes.txt
filE0002.20bytes.txt
filE0002.20bytes.txt
filE0002.20bytes.txt
filE0002.20bytes.txt
filE0002.20bytes.txt
filE0002.20bytes.txt
filE0002.20bytes.txt
filE0002.20bytes.txt
filE0002.20bytes.txt
filE0002.20bytes.txt
filE0002.20bytes.txt
filE0002.20bytes.txt
filE0002.20bytes.txt
filE0002.20bytes.txt
filE0002.20bytes.txt
filE0002.20bytes.txt
filE0002.20bytes.txt
filE0002.20bytes.txt
filE0002.20bytes.txt
filE0002.20bytes.txt
filE0002.20bytes.txt
filE0002.20bytes.txt
filE0002.20bytes.txt
filE0002.20bytes.txt
filE0002.20bytes.txt
filE0002.20bytes.txt
filE0002.20bytes.txt
filE0002.20bytes.txt
filE0002.20bytes.txt
filE0002.20bytes.txt
filE0002.20bytes.txt
filE0002.20bytes.txt
filE0002.20bytes.txt
filE0002.20bytes.txt
filE0002.20bytes.txt
filE0002.20bytes.txt
filE0002.20bytes.txt
filE0002.20bytes.txt
filE0002.20bytes.txt
filE0002.20bytes.txt
filE0002.20bytes.txt
filE0002.20bytes.txt
filE0002.20bytes.txt
filE0002.20bytes.txt
filE0002.20bytes.txt
filE0002.20bytes.txt
filE0002.20bytes.txt
filE0002.20bytes.txt
filE0002.20bytes.txt
filE0002.20bytes.txt
filE0002.20bytes.txt
filE0002.20bytes.txt
filE0002.20bytes.txt
filE0002.20bytes.txt
filE0002.20bytes.txt
filE0002.20bytes.txt
filE0002.20bytes.txt
filE0002.20bytes.txt
filE0002.20bytes.txt
filE0002.20bytes.txt
filE0002.20bytes.txt
filE0002.20bytes.txt
filE0002.20bytes.txt
filE0002.20bytes.txt
filE0002.20bytes.txt
filE0002.20bytes.txt
filE0002.20bytes.txt
filE0002.20bytes.txt
filE0002.20bytes.txt
filE0002.20bytes.txt
filE0002.20bytes.txt
filE0002.20bytes.txt
filE0002.20bytes.txt
filE0002.20bytes.txt
filE0002.20bytes.txt
filE0002.20bytes.txt
filE0002.20bytes.txt
filE0002.20bytes.txt
filE0002.20bytes.txt
filE0002.20bytes.txt
filE0002.20bytes.txt
filE0002.20bytes.txt
filE0002.20bytes.txt
filE0002.20bytes.txt
filE0002.20bytes.txt
filE0002.20bytes.txt
filE0002.20bytes.txt
filE0002.20bytes.txt
filE0002.20bytes.txt
filE0002.20bytes.txt
filE0002.20bytes.txt
filE0002.20bytes.txt
filE0002.20bytes.txt
filE0002.20bytes.txt
filE0002.20bytes.txt
filE0002.20bytes.txt
filE0002.20bytes.txt
filE0002.20bytes.txt
filE0002.20bytes.txt
filE0002.20bytes.txt
filE0002.20bytes.txt
filE0002.20bytes.txt
filE0002.20bytes.txt
filE0002.20bytes.txt
filE0002.20bytes.txt
filE0002.20bytes.txt
filE0002.20bytes.txt
filE0002.20bytes.txt
filE0002.20bytes.txt
filE0002.20bytes.txt
filE0002.20bytes.txt
filE0002.20bytes.txt
filE0002.20bytes.txt
filE0002.20bytes.txt
filE0002.20bytes.txt
filE0002.20bytes.txt
filE0002.20bytes.txt
filE0002.20bytes.txt
filE0002.20bytes.txt
filE0002.20bytes.txt
filE0002.20bytes.txt
filE0002.20bytes.txt
filE0002.20bytes.txt
filE0002.20bytes.txt
filE0002.20bytes.txt
filE0002.20bytes.txt
filE0002.20bytes.txt
filE0002.20bytes.txt
filE0002.20bytes.txt
filE0002.20bytes.txt
filE0002.20bytes.txt
filE0002.20bytes.txt
filE0002.20bytes.txt
filE0002.20bytes.txt
filE0002.20bytes.txt
filE0002.20bytes.txt
filE0002.20bytes.txt
filE0002.20bytes.txt
filE0002.20bytes.txt
filE0002.20bytes.txt
filE0002.20bytes.txt
filE0002.20bytes.txt
filE0002.20bytes.txt
filE0002.20bytes.txt
filE0002.20bytes.txt
filE0002.20bytes.txt
filE0002.20bytes.txt
filE0002.20bytes.txt
filE0002.20bytes.txt
filE0002.20bytes.txt
filE0002.20bytes.txt
filE0002.20bytes.txt
filE0002.20bytes.txt
filE0002.20bytes.txt
filE0002.20bytes.txt
filE0002.20bytes.txt
filE0002.20bytes.txt
filE0002.20bytes.txt
filE0002.20bytes.txt
filE0002.20bytes.txt
filE0002.20bytes.txt
filE0002.20bytes.txt
filE0002.20bytes.txt
filE0002.20bytes.txt
filE0002.20bytes.txt
filE0002.20bytes.txt
filE0002.20bytes.txt
filE0002.20bytes.txt
filE0002.20bytes.txt
filE0002.20bytes.txt
filE0002.20bytes.txt
filE0002.20bytes.txt
filE0002.20bytes.txt
filE0002.20bytes.txt
filE0002.20bytes.txt
filE0002.20bytes.txt
filE0002.20bytes.txt
filE0002.20bytes.txt
filE0002.20bytes.txt
filE0002.20bytes.txt
filE0002.20bytes.txt
filE0002.20bytes.txt
filE0002.20bytes.txt
filE0002.20bytes.txt
filE0002.20bytes.txt
filE0002.20bytes.txt
filE0002.20bytes.txt
filE0002.20bytes.txt
filE0002.20bytes.txt
filE0002.20bytes.txt
filE0002.20bytes.txt
filE0002.20bytes.txt
filE0002.20bytes.txt
filE0002.20bytes.txt
filE0002.20bytes.txt
filE0002.20bytes.txt
filE0002.20bytes.txt
filE0002.20bytes.txt
filE0002.20bytes.txt
filE0002.20bytes.txt
filE0002.20bytes.txt
filE0002.20bytes.txt
filE0002.20bytes.txt
filE0002.20bytes.txt
filE0002.20bytes.txt
filE0002.20bytes.txt
filE0002.20bytes.txt
filE0002.20bytes.txt
filE0002.20bytes.txt
filE0002.20bytes.txt
filE0002.20bytes.txt
filE0002.20bytes.txt
filE0002.20bytes.txt
filE0002.20bytes.txt
filE0002.20bytes.txt
filE0002.20bytes.txt
filE0002.20bytes.txt
filE0002.20bytes.txt
filE0002.20bytes.txt
filE0002.20bytes.txt
filE0002.20bytes.txt
filE0002.20bytes.txt
filE0002.20bytes.txt
filE0002.20bytes.txt
filE0002.20bytes.txt
filE0002.20bytes.txt
filE0002.20bytes.txt
filE0002.20bytes.txt
filE0002.20bytes.txt
filE0002.20bytes.txt
filE0002.20bytes.txt
filE0002.20bytes.txt
filE0002.20bytes.txt
filE0002.20bytes.txt
filE0002.20bytes.txt
filE0002.20bytes.txt
filE0002.20bytes.txt
filE0002.20bytes.txt
filE0002.20bytes.txt
filE0002.20bytes.txt
filE0002.20bytes.txt
filE0002.20bytes.txt
filE0002.20bytes.txt
filE0002.20bytes.txt
filE0002.20bytes.txt
filE0002.20bytes.txt
filE0002.20bytes.txt
filE0002.20bytes.txt
filE0002.20bytes.txt
filE0002.20bytes.txt
filE0002.20bytes.txt
filE0002.20bytes.txt
filE0002.20bytes.txt
filE0002.20bytes.txt
filE0002.20bytes.txt
filE0002.20bytes.txt
filE0002.20bytes.txt
filE0002.20bytes.txt
filE0002.20bytes.txt
filE0002.20bytes.txt
filE0002.20bytes.txt
filE0002.20bytes.txt
filE0002.20bytes.txt
filE0002.20bytes.txt
filE0002.20bytes.txt
filE0002.20bytes.txt
filE0002.20bytes.txt
filE0002.20bytes.txt
filE0002.20bytes.txt
filE0002.20bytes.txt
filE0002.20bytes.txt
filE0002.20bytes.txt
filE0002.20bytes.txt
filE0002.20bytes.txt
filE0002.20bytes.txt
filE0002.20bytes.txt
filE0002.20bytes.txt
filE0002.20bytes.txt
filE0002.20bytes.txt
filE0002.20bytes.txt
filE0002.20bytes.txt
filE0002.20bytes.txt
filE0002.20bytes.txt
filE0002.20bytes.txt
filE0002.20bytes.txt
filE0002.20bytes.txt
filE0002.20bytes.txt
filE0002.20bytes.txt
filE0002.20bytes.txt
filE0002.20bytes.txt
filE0002.20bytes.txt
filE0002.20bytes.txt
filE0002.20bytes.txt
filE0002.20bytes.txt
filE0002.20bytes.txt
filE0002.20bytes.txt
filE0002.20bytes.txt
filE0002.20bytes.txt
filE0002.20bytes.txt
filE0002.20bytes.txt
filE0002.20bytes.txt
filE0002.20bytes.txt
filE0002.20bytes.txt
filE0002.20bytes.txt
filE0002.20bytes.txt
filE0002.20bytes.txt
filE0002.20bytes.txt
filE0002.20bytes.txt
filE0002.20bytes.txt
filE0002.20bytes.txt
filE0002.20bytes.txt
filE0002.20bytes.txt
filE0002.20bytes.txt
filE0002.20bytes.txt
filE0002.20bytes.txt
filE0002.20bytes.txt
filE0002.20bytes.txt
filE0002.20bytes.txt
filE0002.20bytes.txt
filE0002.20bytes.txt
filE0002.20bytes.txt
filE0002.20bytes.txt
filE0002.20bytes.txt
filE0002.20bytes.txt
filE0002.20bytes.txt
filE0002.20bytes.txt
filE0002.20bytes.txt
filE0002.20bytes.txt
filE0002.20bytes.txt
filE0002.20bytes.txt
filE0002.20bytes.txt
filE0002.20bytes.txt
filE0002.20bytes.txt
filE0002.20bytes.txt
filE0002.20bytes.txt
filE0002.20bytes.txt
filE0002.20bytes.txt
filE0002.20bytes.txt
filE0002.20bytes.txt
filE0002.20bytes.txt
filE0002.20bytes.txt
filE0002.20bytes.txt
filE0002.20bytes.txt
filE0002.20bytes.txt
filE0002.20bytes.txt
filE0002.20bytes.txt
filE0002.20bytes.txt
filE0002.20bytes.txt
filE0002.20bytes.txt
filE0002.20bytes.txt
filE0002.20bytes.txt
filE0002.20bytes.txt
filE0002.20bytes.txt
filE0002.20bytes.txt
filE0002.20bytes.txt
filE0002.20bytes.txt
filE0002.20bytes.txt
filE0002.20bytes.txt
filE0002.20bytes.txt
filE0002.20bytes.txt
filE0002.20bytes.txt
filE0002.20bytes.txt
filE0002.20bytes.txt
filE0002.20bytes.txt
filE0002.20bytes.txt
filE0002.20bytes.txt
filE0002.20bytes.txt
filE0002.20bytes.txt
filE0002.20bytes.txt
filE0002.20bytes.txt
filE0002.20bytes.txt
filE0002.20bytes.txt
filE0002.20bytes.txt
filE0002.20bytes.txt
filE0002.20bytes.txt
filE0002.20bytes.txt
filE0002.20bytes.txt
filE0002.20bytes.txt
filE0002.20bytes.txt
filE0002.20bytes.txt
filE0002.20bytes.txt
filE0002.20bytes.txt
filE0002.20bytes.txt
filE0002.20bytes.txt
filE0002.20bytes.txt
filE0002.20bytes.txt
filE0002.20bytes.txt
filE0002.20bytes.txt
filE0002.20bytes.txt
filE0002.20bytes.txt
filE0002.20bytes.txt
filE0002.20bytes.txt
filE0002.20bytes.txt
filE0002.20bytes.txt
filE0002.20bytes.txt
filE0002.20bytes.txt
filE0002.20bytes.txt
filE0002.20bytes.txt
filE0002.20bytes.txt
filE0002.20bytes.txt
filE0002.20bytes.txt
filE0002.20bytes.txt
filE0002.20bytes.txt
filE0002.20bytes.txt
filE0002.20bytes.txt
filE0002.20bytes.txt
filE0002.20bytes.txt
filE0002.20bytes.txt
filE0002.20bytes.txt
filE0002.20bytes.txt
filE0002.20bytes.txt
filE0002.20bytes.txt
filE0002.20bytes.txt
filE0002.20bytes.txt
filE0002.20bytes.txt
filE0002.20bytes.txt
filE0002.20bytes.txt
filE0002.20bytes.txt
filE0002.20bytes.txt
filE0002.20bytes.txt
filE0002.20bytes.txt
filE0002.20bytes.txt
filE0002.20bytes.txt
filE0002.20bytes.txt
filE0002.20bytes.txt
filE0002.20bytes.txt
filE0002.20bytes.txt
filE0002.20bytes.txt
filE0002.20bytes.txt
filE0002.20bytes.txt
filE0002.20bytes.txt
filE0002.20bytes.txt
filE0002.20bytes.txt
filE0002.20bytes.txt
filE0002.20bytes.txt
filE0002.20bytes.txt
filE0002.20bytes.txt
filE0002.20bytes.txt
filE0002.20bytes.txt
filE0002.20bytes.txt
filE0002.20bytes.txt
filE0002.20bytes.txt
filE0002.20bytes.txt
filE0002.20bytes.txt
filE0002.20bytes.txt
filE0002.20bytes.txt
filE0002.20bytes.txt
filE0002.20bytes.txt
filE0002.20bytes.txt
filE0002.20bytes.txt
filE0002.20bytes.txt
filE0002.20bytes.txt
filE0002.20bytes.txt
filE0002.20bytes.txt
filE0002.20bytes.txt
filE0002.20bytes.txt
filE0002.20bytes.txt
filE0002.20bytes.txt
filE0002.20bytes.txt
filE0002.20bytes.txt
filE0002.20bytes.txt
filE0002.20bytes.txt
filE0002.20bytes.txt
filE0002.20bytes.txt
filE0002.20bytes.txt
filE0002.20bytes.txt
filE0002.20bytes.txt
filE0002.20bytes.txt
filE0002.20bytes.txt
filE0002.20bytes.txt
filE0002.20bytes.txt
filE0002.20bytes.txt
filE0002.20bytes.txt
filE0002.20bytes.txt
filE0002.20bytes.txt
filE0002.20bytes.txt
filE0002.20bytes.txt
filE0002.20bytes.txt
filE0002.20bytes.txt
filE0002.20bytes.txt
filE0002.20bytes.txt
filE0002.20bytes.txt
filE0002.20bytes.txt
filE0002.20bytes.txt
filE0002.20bytes.txt
filE0002.20bytes.txt
filE0002.20bytes.txt
filE0002.20bytes.txt
filE0002.20bytes.txt
filE0002.20bytes.txt
filE0002.20bytes.txt
filE0002.20bytes.txt
filE0002.20bytes.txt
filE0002.20bytes.txt
filE0002.20bytes.txt
filE0002.20bytes.txt
filE0002.20bytes.txt
filE0002.20bytes.txt
filE0002.20bytes.txt
filE0002.20bytes.txt
filE0002.20bytes.txt
filE0002.20bytes.txt
filE0002.20bytes.txt
filE0002.20bytes.txt
filE0002.20bytes.txt
filE0002.20bytes.txt
filE0002.20bytes.txt
filE0002.20bytes.txt
filE0002.20bytes.txt
filE0002.20bytes.txt
filE0002.20bytes.txt
filE0002.20bytes.txt
filE0002.20bytes.txt
filE0002.20bytes.txt
filE0002.20bytes.txt
filE0002.20bytes.txt
filE0002.20bytes.txt
filE0002.20bytes.txt
filE0002.20bytes.txt
filE0002.20bytes.txt
filE0002.20bytes.txt
filE0002.20bytes.txt
filE0002.20bytes.txt
filE0002.20bytes.txt
filE0002.20bytes.txt
filE0002.20bytes.txt
filE0002.20bytes.txt
filE0002.20bytes.txt
filE0002.20bytes.txt
filE0002.20bytes.txt
filE0002.20bytes.txt
filE0002.20bytes.txt
filE0002.20bytes.txt
filE0002.20bytes.txt
filE0002.20bytes.txt
filE0002.20bytes.txt
filE0002.20bytes.txt
filE0002.20bytes.txt
filE0002.20bytes.txt
filE0002.20bytes.txt
filE0002.20bytes.txt
filE0002.20bytes.txt
filE0002.20bytes.txt
filE0002.20bytes.txt
filE0002.20bytes.txt
filE0002.20bytes.txt
filE0002.20bytes.txt
filE0002.20bytes.txt
filE0002.20bytes.txt
filE0002.20bytes.txt
filE0002.20bytes.txt
filE0002.20bytes.txt
filE0002.20bytes.txt
filE0002.20bytes.txt
filE0002.20bytes.txt
filE0002.20bytes.txt
filE0002.20bytes.txt
filE0002.20bytes.txt
filE0002.20bytes.txt
filE0002.20bytes.txt
filE0002.20bytes.txt
filE0002.20bytes.txt
filE0002.20bytes.txt
filE0002.20bytes.txt
filE0002.20bytes.txt
filE0002.20bytes.txt
filE0002.20bytes.txt
filE0002.20bytes.txt
filE0002.20bytes.txt
filE0002.20bytes.txt
filE0002.20bytes.txt
filE0002.20bytes.txt
filE0002.20bytes.txt
filE0002.20bytes.txt
filE0002.20bytes.txt
filE0002.20bytes.txt
filE0002.20bytes.txt
filE0002.20bytes.txt
filE0002.20bytes.txt
filE0002.20bytes.txt
filE0002.20bytes.txt
filE0002.20bytes.txt
filE0002.20bytes.txt
filE0002.20bytes.txt
filE0002.20bytes.txt
filE0002.20bytes.txt
filE0002.20bytes.txt
filE0002.20bytes.txt
filE0002.20bytes.txt
filE0002.20bytes.txt
filE0002.20bytes.txt
filE0002.20bytes.txt
filE0002.20bytes.txt
filE0002.20bytes.txt
filE0002.20bytes.txt
filE0002.20bytes.txt
filE0002.20bytes.txt
filE0002.20bytes.txt
filE0002.20bytes.txt
filE0002.20bytes.txt
filE0002.20bytes.txt
filE0002.20bytes.txt
filE0002.20bytes.txt
filE0002.20bytes.txt
filE0002.20bytes.txt
filE0002.20bytes.txt
filE0002.20bytes.txt
filE0002.20bytes.txt
filE0002.20bytes.txt
filE0002.20bytes.txt
filE0002.20bytes.txt
filE0002.20bytes.txt
filE0002.20bytes.txt
filE0002.20bytes.txt
filE0002.20bytes.txt
filE0002.20bytes.txt
filE0002.20bytes.txt
filE0002.20bytes.txt
filE0002.20bytes.txt
filE0002.20bytes.txt
filE0002.20bytes.txt
filE0002.20bytes.txt
filE0002.20bytes.txt
filE0002.20bytes.txt
filE0002.20bytes.txt
filE0002.20bytes.txt
filE0002.20bytes.txt
filE0002.20bytes.txt
filE0002.20bytes.txt
filE0002.20bytes.txt
filE0002.20bytes.txt
filE0002.20bytes.txt
filE0002.20bytes.txt
filE0002.20bytes.txt
filE0002.20bytes.txt
filE0002.20bytes.txt
filE0002.20bytes.txt
filE0002.20bytes.txt
filE0002.20bytes.txt
filE0002.20bytes.txt
filE0002.20bytes.txt
filE0002.20bytes.txt
filE0002.20bytes.txt
filE0002.20bytes.txt
filE0002.20bytes.txt
filE0002.20bytes.txt
filE0002.20bytes.txt
filE0002.20bytes.txt
filE0002.20bytes.txt
filE0002.20bytes.txt
filE0002.20bytes.txt
filE0002.20bytes.txt
filE0002.20bytes.txt
filE0002.20bytes.txt
filE0002.20bytes.txt
filE0002.20bytes.txt
filE0002.20bytes.txt
filE0002.20bytes.txt
filE0002.20bytes.txt
filE0002.20bytes.txt
filE0002.20bytes.txt
filE0002.20bytes.txt
filE0002.20bytes.txt
filE0002.20bytes.txt
filE0002.20bytes.txt
filE0002.20bytes.txt
filE0002.20bytes.txt
filE0002.20bytes.txt
filE0002.20bytes.txt
filE0002.20bytes.txt
filE0002.20bytes.txt
filE0002.20bytes.txt
filE0002.20bytes.txt
filE0002.20bytes.txt
filE0002.20bytes.txt
filE0002.20bytes.txt
filE0002.20bytes.txt
filE0002.20bytes.txt
filE0002.20bytes.txt
filE0002.20bytes.txt
filE0002.20bytes.txt
filE0002.20bytes.txt
filE0002.20bytes.txt
filE0002.20bytes.txt
filE0002.20bytes.txt
filE0002.20bytes.txt
filE0002.20bytes.txt
filE0002.20bytes.txt
filE0002.20bytes.txt
filE0002.20bytes.txt
filE0002.20bytes.txt
filE0002.20bytes.txt
filE0002.20bytes.txt
filE0002.20bytes.txt
filE0002.20bytes.txt
filE0002.20bytes.txt
filE0002.20bytes.txt
filE0002.20bytes.txt
filE0002.20bytes.txt
filE0002.20bytes.txt
filE0002.20bytes.txt
filE0002.20bytes.txt
filE0002.20bytes.txt
filE0002.20bytes.txt
filE0002.20bytes.txt
filE0002.20bytes.txt
filE0002.20bytes.txt
filE0002.20bytes.txt
filE0002.20bytes.txt
filE0002.20bytes.txt
filE0002.20bytes.txt
filE0002.20bytes.txt
filE0002.20bytes.txt
filE0002.20bytes.txt
filE0002.20bytes.txt
filE0002.20bytes.txt
filE0002.20bytes.txt
filE0002.20bytes.txt
filE0002.20bytes.txt
filE0002.20bytes.txt
filE0002.20bytes.txt
filE0002.20bytes.txt
filE0002.20bytes.txt
filE0002.20bytes.txt
filE0002.20bytes.txt
filE0002.20bytes.txt
filE0002.20bytes.txt
filE0002.20bytes.txt
filE0002.20bytes.txt
filE0002.20bytes.txt
filE0002.20bytes.txt
filE0002.20bytes.txt
filE0002.20bytes.txt
filE0002.20bytes.txt
filE0002.20bytes.txt
filE0002.20bytes.txt
filE0002.20bytes.txt
filE0002.20bytes.txt
filE0002.20bytes.txt
filE0002.20bytes.txt
filE0002.20bytes.txt
filE0002.20bytes.txt
filE0002.20bytes.txt
filE0002.20bytes.txt
filE0002.20bytes.txt
filE0002.20bytes.txt
filE0002.20bytes.txt
filE0002.20bytes.txt
filE0002.20bytes.txt
filE0002.20bytes.txt
filE0002.20bytes.txt
filE0002.20bytes.txt
filE0002.20bytes.txt
filE0002.20bytes.txt
filE0002.20bytes.txt
filE0002.20bytes.txt
filE0002.20bytes.txt
filE0002.20bytes.txt
filE0002.20bytes.txt
filE0002.20bytes.txt
filE0002.20bytes.txt
filE0002.20bytes.txt
filE0002.20bytes.txt
filE0002.20bytes.txt
filE0002.20bytes.txt
filE0002.20bytes.txt
filE0002.20bytes.txt
filE0002.20bytes.txt
filE0002.20bytes.txt
filE0002.20bytes.txt
filE0002.20bytes.txt
filE0002.20bytes.txt
filE0002.20bytes.txt
filE0002.20bytes.txt
filE0002.20bytes.txt
filE0002.20bytes.txt
filE0002.20bytes.txt
filE0002.20bytes.txt
filE0002.20bytes.txt
filE0002.20bytes.txt
filE0002.20bytes.txt
filE0002.20bytes.txt
filE0002.20bytes.txt
filE0002.20bytes.txt
filE0002.20bytes.txt
filE0002.20bytes.txt
filE0002.20bytes.txt
filE0002.20bytes.txt
filE0002.20bytes.txt
filE0002.20bytes.txt
filE0002.20bytes.txt
filE0002.20bytes.txt
filE0002.20bytes.txt
filE0002.20bytes.txt
filE0002.20bytes.txt
filE0002.20bytes.txt
filE0002.20bytes.txt
filE0002.20bytes.txt
filE0002.20bytes.txt
filE0002.20bytes.txt
filE0002.20bytes.txt
filE0002.20bytes.txt
filE0002.20bytes.txt
filE0002.20bytes.txt
filE0002.20bytes.txt
filE0002.20bytes.txt
filE0002.20bytes.txt
filE0002.20bytes.txt
filE0002.20bytes.txt
filE0002.20bytes.txt
filE0002.20bytes.txt
filE0002.20bytes.txt
filE0002.20bytes.txt
filE0002.20bytes.txt
filE0002.20bytes.txt
filE0002.20bytes.txt
filE0002.20bytes.txt
filE0002.20bytes.txt
filE0002.20bytes.txt
filE0002.20bytes.txt
filE0002.20bytes.txt
filE0002.20bytes.txt
filE0002.20bytes.txt
filE0002.20bytes.txt
filE0002.20bytes.txt
filE0002.20bytes.txt
filE0002.20bytes.txt
filE0002.20bytes.txt
filE0002.20bytes.txt
filE0002.20bytes.txt
filE0002.20bytes.txt
filE0002.20bytes.txt
filE0002.20bytes.txt
filE0002.20bytes.txt
filE0002.20bytes.txt
filE0002.20bytes.txt
filE0002.20bytes.txt
filE0002.20bytes.txt
filE0002.20bytes.txt
filE0002.20bytes.txt
filE0002.20bytes.txt
filE0002.20bytes.txt
filE0002.20bytes.txt
filE0002.20bytes.txt
filE0002.20bytes.txt
filE0002.20bytes.txt
filE0002.20bytes.txt
filE0002.20bytes.txt
filE0002.20bytes.txt
filE0002.20bytes.txt
filE0002.20bytes.txt
filE0002.20bytes.txt
filE0002.20bytes.txt
filE0002.20bytes.txt
filE0002.20bytes.txt
filE0002.20bytes.txt
filE0002.20bytes.txt
filE0002.20bytes.txt
filE0002.20bytes.txt
filE0002.20bytes.txt
filE0002.20bytes.txt
filE0002.20bytes.txt
filE0002.20bytes.txt
filE0002.20bytes.txt
filE0002.20bytes.txt
filE0002.20bytes.txt
filE0002.20bytes.txt
filE0002.20bytes.txt
filE0002.20bytes.txt
filE0002.20bytes.txt
filE0002.20bytes.txt
filE0002.20bytes.txt
filE0002.20bytes.txt
filE0002.20bytes.txt
filE0002.20bytes.txt
filE0002.20bytes.txt
filE0002.20bytes.txt
filE0002.20bytes.txt
filE0002.20bytes.txt
filE0002.20bytes.txt
filE0002.20bytes.txt
filE0002.20bytes.txt
filE0002.20bytes.txt
filE0002.20bytes.txt
filE0002.20bytes.txt
filE0002.20bytes.txt
filE0002.20bytes.txt
filE0002.20bytes.txt
filE0002.20bytes.txt
filE0002.20bytes.txt
filE0002.20bytes.txt
filE0002.20bytes.txt
filE0002.20bytes.txt
filE0002.20bytes.txt
filE0002.20bytes.txt
filE0002.20bytes.txt
filE0002.20bytes.txt
filE0002.20bytes.txt
filE0002.20bytes.txt
filE0002.20bytes.txt
filE0002.20bytes.txt
filE0002.20bytes.txt
filE0002.20bytes.txt
filE0002.20bytes.txt
filE0002.20bytes.txt
filE0002.20bytes.txt
filE0002.20bytes.txt
filE0002.20bytes.txt
filE0002.20bytes.txt
filE0002.20bytes.txt
filE0002.20bytes.txt
filE0002.20bytes.txt
filE0002.20bytes.txt
filE0002.20bytes.txt
filE0002.20bytes.txt
filE0002.20bytes.txt
filE0002.20bytes.txt
filE0002.20bytes.txt
filE0002.20bytes.txt
filE0002.20bytes.txt
filE0002.20bytes.txt
filE0002.20bytes.txt
filE0002.20bytes.txt
filE0002.20bytes.txt
filE0002.20bytes.txt
filE0002.20bytes.txt
filE0002.20bytes.txt
filE0002.20bytes.txt
filE0002.20bytes.txt
filE0002.20bytes.txt
filE0002.20bytes.txt
filE0002.20bytes.txt
filE0002.20bytes.txt
filE0002.20bytes.txt
filE0002.20bytes.txt
filE0002.20bytes.txt
filE0002.20bytes.txt
filE0002.20bytes.txt
filE0002.20bytes.txt
filE0002.20bytes.txt
filE0002.20bytes.txt
filE0002.20bytes.txt
filE0002.20bytes.txt
filE0002.20bytes.txt
filE0002.20bytes.txt
filE0002.20bytes.txt
filE0002.20bytes.txt
filE0002.20bytes.txt
filE0002.20bytes.txt
filE0002.20bytes.txt
filE0002.20bytes.txt
filE0002.20bytes.txt
filE0002.20bytes.txt
filE0002.20bytes.txt
filE0002.20bytes.txt
filE0002.20bytes.txt
filE0002.20bytes.txt
filE0002.20bytes.txt
filE0002.20bytes.txt
filE0002.20bytes.txt
filE0002.20bytes.txt
filE0002.20bytes.txt
filE0002.20bytes.txt
filE0002.20bytes.txt
filE0002.20bytes.txt
filE0002.20bytes.txt
filE0002.20bytes.txt
filE0002.20bytes.txt
filE0002.20bytes.txt
filE0002.20bytes.txt
filE0002.20bytes.txt
filE0002.20bytes.txt
filE0002.20bytes.txt
filE0002.20bytes.txt
filE0002.20bytes.txt
filE0002.20bytes.txt
filE0002.20bytes.txt
filE0002.20bytes.txt
filE0002.20bytes.txt
filE0002.20bytes.txt
filE0002.20bytes.txt
filE0002.20bytes.txt
filE0002.20bytes.txt
filE0002.20bytes.txt
filE0002.20bytes.txt
filE0002.20bytes.txt
filE0002.20bytes.txt
filE0002.20bytes.txt
filE0002.20bytes.txt
filE0002.20bytes.txt
filE0002.20bytes.txt
filE0002.20bytes.txt
filE0002.20bytes.txt
filE0002.20bytes.txt
filE0002.20bytes.txt
filE0002.20bytes.txt
filE0002.20bytes.txt
filE0002.20bytes.txt
filE0002.20bytes.txt
filE0002.20bytes.txt
filE0002.20bytes.txt
filE0002.20bytes.txt
filE0002.20bytes.txt
filE0002.20bytes.txt
filE0002.20bytes.txt
filE0002.20bytes.txt
filE0002.20bytes.txt
filE0002.20bytes.txt
filE0002.20bytes.txt
filE0002.20bytes.txt
filE0002.20bytes.txt
filE0002.20bytes.txt
filE0002.20bytes.txt
filE0002.20bytes.txt
filE0002.20bytes.txt
filE0002.20bytes.txt
filE0002.20bytes.txt
filE0002.20bytes.txt
filE0002.20bytes.txt
filE0002.20bytes.txt
filE0002.20bytes.txt
filE0002.20bytes.txt
filE0002.20bytes.txt
filE0002.20bytes.txt
filE0002.20bytes.txt
filE0002.20bytes.txt
filE0002.20bytes.txt
filE0002.20bytes.txt
filE0002.20bytes.txt
filE0002.20bytes.txt
filE0002.20bytes.txt
filE0002.20bytes.txt
filE0002.20bytes.txt
filE0002.20bytes.txt
filE0002.20bytes.txt
filE0002.20bytes.txt
filE0002.20bytes.txt
filE0002.20bytes.txt
filE0002.20bytes.txt
filE0002.20bytes.txt
filE0002.20bytes.txt
filE0002.20bytes.txt
filE0002.20bytes.txt
filE0002.20bytes.txt
filE0002.20bytes.txt
filE0002.20bytes.txt
filE0002.20bytes.txt
filE0002.20bytes.txt
filE0002.20bytes.txt
filE0002.20bytes.txt
filE0002.20bytes.txt
filE0002.20bytes.txt
filE0002.20bytes.txt
filE0002.20bytes.txt
filE0002.20bytes.txt
filE0002.20bytes.txt
filE0002.20bytes.txt
filE0002.20bytes.txt
filE0002.20bytes.txt
filE0002.20bytes.txt
filE0002.20bytes.txt
filE0002.20bytes.txt
filE0002.20bytes.txt
filE0002.20bytes.txt
filE0002.20bytes.txt
filE0002.20bytes.txt
filE0002.20bytes.txt
filE0002.20bytes.txt
filE0002.20bytes.txt
filE0002.20bytes.txt
filE0002.20bytes.txt
filE0002.20bytes.txt
filE0002.20bytes.txt
filE0002.20bytes.txt
filE0002.20bytes.txt
filE0002.20bytes.txt
filE0002.20bytes.txt
filE0002.20bytes.txt
filE0002.20bytes.txt
filE0002.20bytes.txt
filE0002.20bytes.txt
filE0002.20bytes.txt
filE0002.20bytes.txt
filE0002.20bytes.txt
filE0002.20bytes.txt
filE0002.20bytes.txt
filE0002.20bytes.txt
filE0002.20bytes.txt
filE0002.20bytes.txt
filE0002.20bytes.txt
filE0002.20bytes.txt
filE0002.20bytes.txt
filE0002.20bytes.txt
filE0002.20bytes.txt
filE0002.20bytes.txt
filE0002.20bytes.txt
filE0002.20bytes.txt
filE0002.20bytes.txt
filE0002.20bytes.txt
filE0002.20bytes.txt
filE0002.20bytes.txt
filE0002.20bytes.txt
filE0002.20bytes.txt
filE0002.20bytes.txt
filE0002.20bytes.txt
filE0002.20bytes.txt
filE0002.20bytes.txt
filE0002.20bytes.txt
filE0002.20bytes.txt
filE0002.20bytes.txt
filE0002.20bytes.txt
filE0002.20bytes.txt
filE0002.20bytes.txt
filE0002.20bytes.txt
filE0002.20bytes.txt
filE0002.20bytes.txt
filE0002.20bytes.txt
filE0002.20bytes.txt
filE0002.20bytes.txt
filE0002.20bytes.txt
filE0002.20bytes.txt
filE0002.20bytes.txt
filE0002.20bytes.txt
filE0002.20bytes.txt
filE0002.20bytes.txt

filE0002.20bytes.txt
filE0002.20bytes.txt
filE0002.20bytes.txt
filE0002.20bytes.txt
filE0002.20bytes.txt
filE0002.20bytes.txt
filE0002.20bytes.txt
filE0002.20bytes.txt
filE0002.20bytes.txt
filE0002.20bytes.txt
filE0002.20bytes.txt
filE0002.20bytes.txt
filE0002.20bytes.txt
filE0002.20bytes.txt
filE0002.20bytes.txt
filE0002.20bytes.txt
filE0002.20bytes.txt
filE0002.20bytes.txt
filE0002.20bytes.txt
filE0002.20bytes.txt
filE0002.20bytes.txt
filE0002.20bytes.txt
filE0002.20bytes.txt
filE0002.20bytes.txt
filE0002.20bytes.txt
filE0002.20bytes.txt
filE0002.20bytes.txt
filE0002.20bytes.txt
filE0002.20bytes.txt
filE0002.20bytes.txt
filE0002.20bytes.txt
filE0002.20bytes.txt
filE0002.20bytes.txt
filE0002.20bytes.txt
filE0002.20bytes.txt
filE0002.20bytes.txt
filE0002.20bytes.txt
filE0002.20bytes.txt
filE0002.20bytes.txt
filE0002.20bytes.txt
filE0002.20bytes.txt
filE0002.20bytes.txt
filE0002.20bytes.txt
filE0002.20bytes.txt
filE0002.20bytes.txt
filE0002.20bytes.txt
filE0002.20bytes.txt
filE0002.20bytes.txt
filE0002.20bytes.txt
filE0002.20bytes.txt
filE0002.20bytes.txt
filE0002.20bytes.txt
filE0002.20bytes.txt
filE0002.20bytes.txt
filE0002.20bytes.txt
filE0002.20bytes.txt
filE0002.20bytes.txt
filE0002.20bytes.txt
filE0002.20bytes.txt
filE0002.20bytes.txt
filE0002.20bytes.txt
filE0002.20bytes.txt
filE0002.20bytes.txt
filE0002.20bytes.txt
filE0002.20bytes.txt
filE0002.20bytes.txt
filE0002.20bytes.txt
filE0002.20bytes.txt
filE0002.20bytes.txt
filE0002.20bytes.txt
filE0002.20bytes.txt
filE0002.20bytes.txt
filE0002.20bytes.txt
filE0002.20bytes.txt
filE0002.20bytes.txt
filE0002.20bytes.txt
filE0002.20bytes.txt
filE0002.20bytes.txt
filE0002.20bytes.txt
filE0002.20bytes.txt
filE0002.20bytes.txt
filE0002.20bytes.txt
filE0002.20bytes.txt
filE0002.20bytes.txt
filE0002.20bytes.txt
filE0002.20bytes.txt
filE0002.20bytes.txt
filE0002.20bytes.txt
filE0002.20bytes.txt
filE0002.20bytes.txt
filE0002.20bytes.txt
filE0002.20bytes.txt
filE0002.20bytes.txt
filE0002.20bytes.txt
filE0002.20bytes.txt
filE0002.20bytes.txt
filE0002.20bytes.txt
filE0002.20bytes.txt
filE0002.20bytes.txt
filE0002.20bytes.txt
filE0002.20bytes.txt
filE0002.20bytes.txt
filE0002.20bytes.txt
filE0002.20bytes.txt
filE0002.20bytes.txt
filE0002.20bytes.txt
filE0002.20bytes.txt
filE0002.20bytes.txt
filE0002.20bytes.txt
filE0002.20bytes.txt
filE0002.20bytes.txt
filE0002.20bytes.txt
filE0002.20bytes.txt
filE0002.20bytes.txt
filE0002.20bytes.txt
filE0002.20bytes.txt
filE0002.20bytes.txt
filE0002.20bytes.txt
filE0002.20bytes.txt
filE0002.20bytes.txt
filE0002.20bytes.txt
filE0002.20bytes.txt
filE0002.20bytes.txt
filE0002.20bytes.txt
filE0002.20bytes.txt
filE0002.20bytes.txt
filE0002.20bytes.txt
filE0002.20bytes.txt
filE0002.20bytes.txt
filE0002.20bytes.txt
filE0002.20bytes.txt
filE0002.20bytes.txt
filE0002.20bytes.txt
filE0002.20bytes.txt
filE0002.20bytes.txt
filE0002.20bytes.txt
filE0002.20bytes.txt
filE0002.20bytes.txt
filE0002.20bytes.txt
filE0002.20bytes.txt
filE0002.20bytes.txt
filE0002.20bytes.txt
filE0002.20bytes.txt
filE0002.20bytes.txt
filE0002.20bytes.txt
filE0002.20bytes.txt
filE0002.20bytes.txt
filE0002.20bytes.txt
filE0002.20bytes.txt
filE0002.20bytes.txt
filE0002.20bytes.txt
filE0002.20bytes.txt
filE0002.20bytes.txt
filE0002.20bytes.txt
filE0002.20bytes.txt
filE0002.20bytes.txt
filE0002.20bytes.txt
filE0002.20bytes.txt
filE0002.20bytes.txt
filE0002.20bytes.txt
filE0002.20bytes.txt
filE0002.20bytes.txt
filE0002.20bytes.txt
filE0002.20bytes.txt
filE0002.20bytes.txt
filE0002.20bytes.txt
filE0002.20bytes.txt
filE0002.20bytes.txt
filE0002.20bytes.txt
filE0002.20bytes.txt
filE0002.20bytes.txt
filE0002.20bytes.txt
filE0002.20bytes.txt
filE0002.20bytes.txt
filE0002.20bytes.txt
filE0002.20bytes.txt
filE0002.20bytes.txt
filE0002.20bytes.txt
filE0002.20bytes.txt
filE0002.20bytes.txt
filE0002.20bytes.txt
filE0002.20bytes.txt
filE0002.20bytes.txt
filE0002.20bytes.txt
filE0002.20bytes.txt
filE0002.20bytes.txt
filE0002.20bytes.txt
filE0002.20bytes.txt
filE0002.20bytes.txt
filE0002.20bytes.txt
filE0002.20bytes.txt
filE0002.20bytes.txt
filE0002.20bytes.txt
filE0002.20bytes.txt
filE0002.20bytes.txt
filE0002.20bytes.txt
filE0002.20bytes.txt
filE0002.20bytes.txt
filE0002.20bytes.txt
filE0002.20bytes.txt
filE0002.20bytes.txt
filE0002.20bytes.txt
filE0002.20bytes.txt
filE0002.20bytes.txt
filE0002.20bytes.txt
filE0002.20bytes.txt
filE0002.20bytes.txt
filE0002.20bytes.txt
filE0002.20bytes.txt
filE0002.20bytes.txt
filE0002.20bytes.txt
filE0002.20bytes.txt
filE0002.20bytes.txt
filE0002.20bytes.txt
filE0002.20bytes.txt
filE0002.20bytes.txt
filE0002.20bytes.txt
filE0002.20bytes.txt
filE0002.20bytes.txt
filE0002.20bytes.txt
filE0002.20bytes.txt
filE0002.20bytes.txt
filE0002.20bytes.txt
filE0002.20bytes.txt
filE0002.20bytes.txt
filE0002.20bytes.txt
filE0002.20bytes.txt
filE0002.20bytes.txt
filE0002.20bytes.txt
filE0002.20bytes.txt
filE0002.20bytes.txt
filE0002.20bytes.txt
filE0002.20bytes.txt
filE0002.20bytes.txt
filE0002.20bytes.txt
filE0002.20bytes.txt
filE0002.20bytes.txt
filE0002.20bytes.txt
filE0002.20bytes.txt
filE0002.20bytes.txt
filE0002.20bytes.txt
filE0002.20bytes.txt
filE0002.20bytes.txt
filE0002.20bytes.txt
filE0002.20bytes.txt
filE0002.20bytes.txt
filE0002.20bytes.txt
filE0002.20bytes.txt
filE0002.20bytes.txt
filE0002.20bytes.txt
filE0002.20bytes.txt
filE0002.20bytes.txt
filE0002.20bytes.txt
filE0002.20bytes.txt
filE0002.20bytes.txt
filE0002.20bytes.txt
filE0002.20bytes.txt
filE0002.20bytes.txt
filE0002.20bytes.txt
filE0002.20bytes.txt
filE0002.20bytes.txt
filE0002.20bytes.txt
filE0002.20bytes.txt
filE0002.20bytes.txt
filE0002.20bytes.txt
filE0002.20bytes.txt
filE0002.20bytes.txt
filE0002.20bytes.txt
filE0002.20bytes.txt
filE0002.20bytes.txt
filE0002.20bytes.txt
filE0002.20bytes.txt
filE0002.20bytes.txt
filE0002.20bytes.txt
filE0002.20bytes.txt
filE0002.20bytes.txt
filE0002.20bytes.txt
filE0002.20bytes.txt
filE0002.20bytes.txt
filE0002.20bytes.txt
filE0002.20bytes.txt
filE0002.20bytes.txt
filE0002.20bytes.txt
filE0002.20bytes.txt
filE0002.20bytes.txt
filE0002.20bytes.txt
filE0002.20bytes.txt
filE0002.20bytes.txt
filE0002.20bytes.txt
filE0002.20bytes.txt
filE0002.20bytes.txt
filE0002.20bytes.txt
filE0002.20bytes.txt
filE0002.20bytes.txt
filE0002.20bytes.txt
filE0002.20bytes.txt
filE0002.20bytes.txt
filE0002.20bytes.txt
filE0002.20bytes.txt
filE0002.20bytes.txt
filE0002.20bytes.txt
filE0002.20bytes.txt
filE0002.20bytes.txt
filE0002.20bytes.txt
filE0002.20bytes.txt
filE0002.20bytes.txt
filE0002.20bytes.txt
filE0002.20bytes.txt
filE0002.20bytes.txt
filE0002.20bytes.txt
filE0002.20bytes.txt
filE0002.20bytes.txt
filE0002.20bytes.txt
filE0002.20bytes.txt
filE0002.20bytes.txt
filE0002.20bytes.txt
filE0002.20bytes.txt
filE0002.20bytes.txt
filE0002.20bytes.txt
filE0002.20bytes.txt
filE0002.20bytes.txt
filE0002.20bytes.txt
filE0002.20bytes.txt
filE0002.20bytes.txt
filE0002.20bytes.txt
filE0002.20bytes.txt
filE0002.20bytes.txt
filE0002.20bytes.txt
filE0002.20bytes.txt
filE0002.20bytes.txt
filE0002.20bytes.txt
filE0002.20bytes.txt
filE0002.20bytes.txt
filE0002.20bytes.txt
filE0002.20bytes.txt
filE0002.20bytes.txt
filE0002.20bytes.txt
filE0002.20bytes.txt
filE0002.20bytes.txt
filE0002.20bytes.txt
filE0002.20bytes.txt
filE0002.20bytes.txt
filE0002.20bytes.txt
filE0002.20bytes.txt
filE0002.20bytes.txt
filE0002.20bytes.txt
filE0002.20bytes.txt
filE0002.20bytes.txt
filE0002.20bytes.txt
filE0002.20bytes.txt
filE0002.20bytes.txt
filE0002.20bytes.txt
filE0002.20bytes.txt
filE0002.20bytes.txt
filE0002.20bytes.txt
filE0002.20bytes.txt
filE0002.20bytes.txt
filE0002.20bytes.txt
filE0002.20bytes.txt
filE0002.20bytes.txt
filE0002.20bytes.txt
filE0002.20bytes.txt
filE0002.20bytes.txt
filE0002.20bytes.txt
filE0002.20bytes.txt
filE0002.20bytes.txt
filE0002.20bytes.txt
filE0002.20bytes.txt
filE0002.20bytes.txt
filE0002.20bytes.txt
filE0002.20bytes.txt
filE0002.20bytes.txt
filE0002.20bytes.txt
filE0002.20bytes.txt
filE0002.20bytes.txt
filE0002.20bytes.txt
filE0002.20bytes.txt
filE0002.20bytes.txt
filE0002.20bytes.txt
filE0002.20bytes.txt
filE0002.20bytes.txt
filE0002.20bytes.txt
filE0002.20bytes.txt
filE0002.20bytes.txt
filE0002.20bytes.txt
filE0002.20bytes.txt
filE0002.20bytes.txt
filE0002.20bytes.txt
filE0002.20bytes.txt
filE0002.20bytes.txt
filE0002.20bytes.txt
filE0002.20bytes.txt
filE0002.20bytes.txt
filE0002.20bytes.txt
filE0002.20bytes.txt
filE0002.20bytes.txt
filE0002.20bytes.txt
filE0002.20bytes.txt
filE0002.20bytes.txt
filE0002.20bytes.txt
filE0002.20bytes.txt
filE0002.20bytes.txt
filE0002.20bytes.txt
filE0002.20bytes.txt
filE0002.20bytes.txt
filE0002.20bytes.txt
filE0002.20bytes.txt
filE0002.20bytes.txt
filE0002.20bytes.txt
filE0002.20bytes.txt
filE0002.20bytes.txt
filE0002.20bytes.txt
filE0002.20bytes.txt
filE0002.20bytes.txt
filE0002.20bytes.txt
filE0002.20bytes.txt
filE0002.20bytes.txt
filE0002.20bytes.txt
filE0002.20bytes.txt
filE0002.20bytes.txt
filE0002.20bytes.txt
filE0002.20bytes.txt
filE0002.20bytes.txt
filE0002.20bytes.txt
filE0002.20bytes.txt
filE0002.20bytes.txt
filE0002.20bytes.txt
filE0002.20bytes.txt
filE0002.20bytes.txt
filE0002.20bytes.txt
filE0002.20bytes.txt
filE0002.20bytes.txt
filE0002.20bytes.txt
filE0002.20bytes.txt
filE0002.20bytes.txt
filE0002.20bytes.txt
filE0002.20bytes.txt
filE0002.20bytes.txt
filE0002.20bytes.txt
filE0002.20bytes.txt
filE0002.20bytes.txt
filE0002.20bytes.txt
filE0002.20bytes.txt
filE0002.20bytes.txt
filE0002.20bytes.txt
filE0002.20bytes.txt
filE0002.20bytes.txt
filE0002.20bytes.txt
filE0002.20bytes.txt
filE0002.20bytes.txt
filE0002.20bytes.txt
filE0002.20bytes.txt
filE0002.20bytes.txt
filE0002.20bytes.txt
filE0002.20bytes.txt
filE0002.20bytes.txt
filE0002.20bytes.txt
filE0002.20bytes.txt
filE0002.20bytes.txt
filE0002.20bytes.txt
filE0002.20bytes.txt
filE0002.20bytes.txt
filE0002.20bytes.txt
filE0002.20bytes.txt
filE0002.20bytes.txt
filE0002.20bytes.txt
filE0002.20bytes.txt
filE0002.20bytes.txt
filE0002.20bytes.txt
filE0002.20bytes.txt
filE0002.20bytes.txt
filE0002.20bytes.txt
filE0002.20bytes.txt
filE0002.20bytes.txt
filE0002.20bytes.txt
filE0002.20bytes.txt
filE0002.20bytes.txt
filE0002.20bytes.txt
filE0002.20bytes.txt
filE0002.20bytes.txt
filE0002.20bytes.txt
filE0002.20bytes.txt
filE0002.20bytes.txt
filE0002.20bytes.txt
filE0002.20bytes.txt
filE0002.20bytes.txt
filE0002.20bytes.txt
filE0002.20bytes.txt
filE0002.20bytes.txt
filE0002.20bytes.txt
filE0002.20bytes.txt
filE0002.20bytes.txt
filE0002.20bytes.txt
filE0002.20bytes.txt
filE0002.20bytes.txt
filE0002.20bytes.txt
filE0002.20bytes.txt
filE0002.20bytes.txt
filE0002.20bytes.txt
filE0002.20bytes.txt
filE0002.20bytes.txt
filE0002.20bytes.txt
filE0002.20bytes.txt
filE0002.20bytes.txt
filE0002.20bytes.txt
filE0002.20bytes.txt
filE0002.20bytes.txt
filE0002.20bytes.txt
filE0002.20bytes.txt
filE0002.20bytes.txt
filE0002.20bytes.txt
filE0002.20bytes.txt
filE0002.20bytes.txt
filE0002.20bytes.txt
filE0002.20bytes.txt
filE0002.20bytes.txt
filE0002.20bytes.txt
filE0002.20bytes.txt
filE0002.20bytes.txt
filE0002.20bytes.txt
filE0002.20bytes.txt
filE0002.20bytes.txt
filE0002.20bytes.txt
filE0002.20bytes.txt
filE0002.20bytes.txt
filE0002.20bytes.txt
filE0002.20bytes.txt
filE0002.20bytes.txt
filE0002.20bytes.txt
filE0002.20bytes.txt
filE0002.20bytes.txt
filE0002.20bytes.txt
filE0002.20bytes.txt
filE0002.20bytes.txt
filE0002.20bytes.txt
filE0002.20bytes.txt
filE0002.20bytes.txt
filE0002.20bytes.txt
filE0002.20bytes.txt
filE0002.20bytes.txt
filE0002.20bytes.txt
filE0002.20bytes.txt
filE0002.20bytes.txt
filE0002.20bytes.txt
filE0002.20bytes.txt
filE0002.20bytes.txt
filE0002.20bytes.txt
filE0002.20bytes.txt
filE0002.20bytes.txt
filE0002.20bytes.txt
filE0002.20bytes.txt
filE0002.20bytes.txt
filE0002.20bytes.txt
filE0002.20bytes.txt
filE0002.20bytes.txt
filE0002.20bytes.txt
filE0002.20bytes.txt
filE0002.20bytes.txt
filE0002.20bytes.txt
filE0002.20bytes.txt
filE0002.20bytes.txt
filE0002.20bytes.txt
filE0002.20bytes.txt
filE0002.20bytes.txt
filE0002.20bytes.txt
filE0002.20bytes.txt
filE0002.20bytes.txt
filE0002.20bytes.txt
filE0002.20bytes.txt
filE0002.20bytes.txt
filE0002.20bytes.txt
filE0002.20bytes.txt
filE0002.20bytes.txt
filE0002.20bytes.txt
filE0002.20bytes.txt
filE0002.20bytes.txt
filE0002.20bytes.txt
filE0002.20bytes.txt
filE0002.20bytes.txt
filE0002.20bytes.txt
filE0002.20bytes.txt
filE0002.20bytes.txt
filE0002.20bytes.txt
filE0002.20bytes.txt
filE0002.20bytes.txt
filE0002.20bytes.txt
filE0002.20bytes.txt
filE0002.20bytes.txt
filE0002.20bytes.txt
filE0002.20bytes.txt
filE0002.20bytes.txt
filE0002.20bytes.txt
filE0002.20bytes.txt
filE0002.20bytes.txt
filE0002.20bytes.txt
filE0002.20bytes.txt
filE0002.20bytes.txt
filE0002.20bytes.txt
filE0002.20bytes.txt
filE0002.20bytes.txt
filE0002.20bytes.txt
filE0002.20bytes.txt
filE0002.20bytes.txt
filE0002.20bytes.txt
filE0002.20bytes.txt
filE0002.20bytes.txt
filE0002.20bytes.txt
filE0002.20bytes.txt
filE0002.20bytes.txt
filE0002.20bytes.txt
filE0002.20bytes.txt
filE0002.20bytes.txt
filE0002.20bytes.txt
filE0002.20bytes.txt
filE0002.20bytes.txt
filE0002.20bytes.txt
filE0002.20bytes.txt
filE0002.20bytes.txt
filE0002.20bytes.txt
filE0002.20bytes.txt
filE0002.20bytes.txt
filE0002.20bytes.txt
filE0002.20bytes.txt
filE0002.20bytes.txt
filE0002.20bytes.txt
filE0002.20bytes.txt
filE0002.20bytes.txt
filE0002.20bytes.txt
filE0002.20bytes.txt
filE0002.20bytes.txt
filE0002.20bytes.txt
filE0002.20bytes.txt
filE0002.20bytes.txt
filE0002.20bytes.txt
filE0002.20bytes.txt
filE0002.20bytes.txt

filE0002.20bytes.txt
filE0002.20bytes.txt
filE0002.20bytes.txt
filE0002.20bytes.txt
filE0002.20bytes.txt
filE0002.20bytes.txt
filE0002.20bytes.txt
filE0002.20bytes.txt
filE0002.20bytes.txt
filE0002.20bytes.txt
filE0002.20bytes.txt
filE0002.20bytes.txt
filE0002.20bytes.txt
filE0002.20bytes.txt
filE0002.20bytes.txt
filE0002.20bytes.txt
filE0002.20bytes.txt
filE0002.20bytes.txt
filE0002.20bytes.txt
filE0002.20bytes.txt
filE0002.20bytes.txt
filE0002.20bytes.txt
filE0002.20bytes.txt
filE0002.20bytes.txt
filE0002.20bytes.txt
filE0002.20bytes.txt
filE0002.20bytes.txt
filE0002.20bytes.txt
filE0002.20bytes.txt
filE0002.20bytes.txt
filE0002.20bytes.txt
filE0002.20bytes.txt
filE0002.20bytes.txt
filE0002.20bytes.txt
filE0002.20bytes.txt
filE0002.20bytes.txt
filE0002.20bytes.txt
filE0002.20bytes.txt
filE0002.20bytes.txt
filE0002.20bytes.txt
filE0002.20bytes.txt
filE0002.20bytes.txt
filE0002.20bytes.txt
filE0002.20bytes.txt
filE0002.20bytes.txt
filE0002.20bytes.txt
filE0002.20bytes.txt
filE0002.20bytes.txt
filE0002.20bytes.txt
filE0002.20bytes.txt
filE0002.20bytes.txt
filE0002.20bytes.txt
filE0002.20bytes.txt
filE0002.20bytes.txt
filE0002.20bytes.txt
filE0002.20bytes.txt
filE0002.20bytes.txt
filE0002.20bytes.txt
filE0002.20bytes.txt
filE0002.20bytes.txt
filE0002.20bytes.txt
filE0002.20bytes.txt
filE0002.20bytes.txt
filE0002.20bytes.txt
filE0002.20bytes.txt
filE0002.20bytes.txt
filE0002.20bytes.txt
filE0002.20bytes.txt
filE0002.20bytes.txt
filE0002.20bytes.txt
filE0002.20bytes.txt
filE0002.20bytes.txt
filE0002.20bytes.txt
filE0002.20bytes.txt
filE0002.20bytes.txt
filE0002.20bytes.txt
filE0002.20bytes.txt
filE0002.20bytes.txt
filE0002.20bytes.txt
filE0002.20bytes.txt
filE0002.20bytes.txt
filE0002.20bytes.txt
filE0002.20bytes.txt
filE0002.20bytes.txt
filE0002.20bytes.txt
filE0002.20bytes.txt
filE0002.20bytes.txt
filE0002.20bytes.txt
filE0002.20bytes.txt
filE0002.20bytes.txt
filE0002.20bytes.txt
filE0002.20bytes.txt
filE0002.20bytes.txt
filE0002.20bytes.txt
filE0002.20bytes.txt
filE0002.20bytes.txt
filE0002.20bytes.txt
filE0002.20bytes.txt
filE0002.20bytes.txt
filE0002.20bytes.txt
filE0002.20bytes.txt
filE0002.20bytes.txt
filE0002.20bytes.txt
filE0002.20bytes.txt
filE0002.20bytes.txt
filE0002.20bytes.txt
filE0002.20bytes.txt
filE0002.20bytes.txt
filE0002.20bytes.txt
filE0002.20bytes.txt
filE0002.20bytes.txt
filE0002.20bytes.txt
filE0002.20bytes.txt
filE0002.20bytes.txt
filE0002.20bytes.txt
filE0002.20bytes.txt
filE0002.20bytes.txt
filE0002.20bytes.txt
filE0002.20bytes.txt
filE0002.20bytes.txt
filE0002.20bytes.txt
filE0002.20bytes.txt
filE0002.20bytes.txt
filE0002.20bytes.txt
filE0002.20bytes.txt
filE0002.20bytes.txt
filE0002.20bytes.txt
filE0002.20bytes.txt
filE0002.20bytes.txt
filE0002.20bytes.txt
filE0002.20bytes.txt
filE0002.20bytes.txt
filE0002.20bytes.txt
filE0002.20bytes.txt
filE0002.20bytes.txt
filE0002.20bytes.txt
filE0002.20bytes.txt
filE0002.20bytes.txt
filE0002.20bytes.txt
filE0002.20bytes.txt
filE0002.20bytes.txt
filE0002.20bytes.txt
filE0002.20bytes.txt
filE0002.20bytes.txt
filE0002.20bytes.txt
filE0002.20bytes.txt
filE0002.20bytes.txt
filE0002.20bytes.txt
filE0002.20bytes.txt
filE0002.20bytes.txt
filE0002.20bytes.txt
filE0002.20bytes.txt
filE0002.20bytes.txt
filE0002.20bytes.txt
filE0002.20bytes.txt
filE0002.20bytes.txt
filE0002.20bytes.txt
filE0002.20bytes.txt
filE0002.20bytes.txt
filE0002.20bytes.txt
filE0002.20bytes.txt
filE0002.20bytes.txt
filE0002.20bytes.txt
filE0002.20bytes.txt
filE0002.20bytes.txt
filE0002.20bytes.txt
filE0002.20bytes.txt
filE0002.20bytes.txt
filE0002.20bytes.txt
filE0002.20bytes.txt
filE0002.20bytes.txt
filE0002.20bytes.txt
filE0002.20bytes.txt
filE0002.20bytes.txt
filE0002.20bytes.txt
filE0002.20bytes.txt
filE0002.20bytes.txt
filE0002.20bytes.txt
filE0002.20bytes.txt
filE0002.20bytes.txt
filE0002.20bytes.txt
filE0002.20bytes.txt
filE0002.20bytes.txt
filE0002.20bytes.txt
filE0002.20bytes.txt
filE0002.20bytes.txt
filE0002.20bytes.txt
filE0002.20bytes.txt
filE0002.20bytes.txt
filE0002.20bytes.txt
filE0002.20bytes.txt
filE0002.20bytes.txt
filE0002.20bytes.txt
filE0002.20bytes.txt
filE0002.20bytes.txt
filE0002.20bytes.txt
filE0002.20bytes.txt
filE0002.20bytes.txt
filE0002.20bytes.txt
filE0002.20bytes.txt
filE0002.20bytes.txt
filE0002.20bytes.txt
filE0002.20bytes.txt
filE0002.20bytes.txt
filE0002.20bytes.txt
filE0002.20bytes.txt
filE0002.20bytes.txt
filE0002.20bytes.txt
filE0002.20bytes.txt
filE0002.20bytes.txt
filE0002.20bytes.txt
filE0002.20bytes.txt
filE0002.20bytes.txt
filE0002.20bytes.txt
filE0002.20bytes.txt
filE0002.20bytes.txt
filE0002.20bytes.txt
filE0002.20bytes.txt
filE0002.20bytes.txt
filE0002.20bytes.txt
filE0002.20bytes.txt
filE0002.20bytes.txt
filE0002.20bytes.txt
filE0002.20bytes.txt
filE0002.20bytes.txt
filE0002.20bytes.txt
filE0002.20bytes.txt
filE0002.20bytes.txt
filE0002.20bytes.txt
filE0002.20bytes.txt
filE0002.20bytes.txt
filE0002.20bytes.txt
filE0002.20bytes.txt
filE0002.20bytes.txt
filE0002.20bytes.txt
filE0002.20bytes.txt
filE0002.20bytes.txt
filE0002.20bytes.txt
filE0002.20bytes.txt
filE0002.20bytes.txt
filE0002.20bytes.txt
filE0002.20bytes.txt
filE0002.20bytes.txt
filE0002.20bytes.txt
filE0002.20bytes.txt
filE0002.20bytes.txt
filE0002.20bytes.txt
filE0002.20bytes.txt
filE0002.20bytes.txt
filE0002.20bytes.txt
filE0002.20bytes.txt
filE0002.20bytes.txt
filE0002.20bytes.txt
filE0002.20bytes.txt
filE0002.20bytes.txt
filE0002.20bytes.txt
filE0002.20bytes.txt
filE0002.20bytes.txt
filE0002.20bytes.txt
filE0002.20bytes.txt
filE0002.20bytes.txt
filE0002.20bytes.txt
filE0002.20bytes.txt
filE0002.20bytes.txt
filE0002.20bytes.txt
filE0002.20bytes.txt
filE0002.20bytes.txt
filE0002.20bytes.txt
filE0002.20bytes.txt
filE0002.20bytes.txt
filE0002.20bytes.txt
filE0002.20bytes.txt
filE0002.20bytes.txt
filE0002.20bytes.txt
filE0002.20bytes.txt
filE0002.20bytes.txt
filE0002.20bytes.txt
filE0002.20bytes.txt
filE0002.20bytes.txt
filE0002.20bytes.txt
filE0002.20bytes.txt
filE0002.20bytes.txt
filE0002.20bytes.txt
filE0002.20bytes.txt
filE0002.20bytes.txt
filE0002.20bytes.txt
filE0002.20bytes.txt
filE0002.20bytes.txt
filE0002.20bytes.txt
filE0002.20bytes.txt
filE0002.20bytes.txt
filE0002.20bytes.txt
filE0002.20bytes.txt
filE0002.20bytes.txt
filE0002.20bytes.txt
filE0002.20bytes.txt
filE0002.20bytes.txt
filE0002.20bytes.txt
filE0002.20bytes.txt
filE0002.20bytes.txt
filE0002.20bytes.txt
filE0002.20bytes.txt
filE0002.20bytes.txt
filE0002.20bytes.txt
filE0002.20bytes.txt
filE0002.20bytes.txt
filE0002.20bytes.txt
filE0002.20bytes.txt
filE0002.20bytes.txt
filE0002.20bytes.txt
filE0002.20bytes.txt
filE0002.20bytes.txt
filE0002.20bytes.txt
filE0002.20bytes.txt
filE0002.20bytes.txt
filE0002.20bytes.txt
filE0002.20bytes.txt
filE0002.20bytes.txt
filE0002.20bytes.txt
filE0002.20bytes.txt
filE0002.20bytes.txt
filE0002.20bytes.txt
filE0002.20bytes.txt
filE0002.20bytes.txt
filE0002.20bytes.txt
filE0002.20bytes.txt
filE0002.20bytes.txt
filE0002.20bytes.txt
filE0002.20bytes.txt
filE0002.20bytes.txt
filE0002.20bytes.txt
filE0002.20bytes.txt
filE0002.20bytes.txt
filE0002.20bytes.txt
filE0002.20bytes.txt
filE0002.20bytes.txt
filE0002.20bytes.txt
filE0002.20bytes.txt
filE0002.20bytes.txt
filE0002.20bytes.txt
filE0002.20bytes.txt
filE0002.20bytes.txt
filE0002.20bytes.txt
filE0002.20bytes.txt
filE0002.20bytes.txt
filE0002.20bytes.txt
filE0002.20bytes.txt
filE0002.20bytes.txt
filE0002.20bytes.txt
filE0002.20bytes.txt
filE0002.20bytes.txt
filE0002.20bytes.txt
filE0002.20bytes.txt
filE0002.20bytes.txt
filE0002.20bytes.txt
filE0002.20bytes.txt
filE0002.20bytes.txt
filE0002.20bytes.txt
filE0002.20bytes.txt
filE0002.20bytes.txt
filE0002.20bytes.txt
filE0002.20bytes.txt
filE0002.20bytes.txt
filE0002.20bytes.txt
filE0002.20bytes.txt
filE0002.20bytes.txt
filE0002.20bytes.txt
filE0002.20bytes.txt
filE0002.20bytes.txt
filE0002.20bytes.txt
filE0002.20bytes.txt
filE0002.20bytes.txt
filE0002.20bytes.txt
filE0002.20bytes.txt
filE0002.20bytes.txt
filE0002.20bytes.txt
filE0002.20bytes.txt
filE0002.20bytes.txt
filE0002.20bytes.txt
filE0002.20bytes.txt
filE0002.20bytes.txt
filE0002.20bytes.txt
filE0002.20bytes.txt
filE0002.20bytes.txt
filE0002.20bytes.txt
filE0002.20bytes.txt
filE0002.20bytes.txt
filE0002.20bytes.txt
filE0002.20bytes.txt
filE0002.20bytes.txt
filE0002.20bytes.txt
filE0002.20bytes.txt
filE0002.20bytes.txt
filE0002.20bytes.txt
filE0002.20bytes.txt
filE0002.20bytes.txt
filE0002.20bytes.txt
filE0002.20bytes.txt
filE0002.20bytes.txt
filE0002.20bytes.txt
filE0002.20bytes.txt
filE0002.20bytes.txt
filE0002.20bytes.txt
filE0002.20bytes.txt
filE0002.20bytes.txt
filE0002.20bytes.txt
filE0002.20bytes.txt
filE0002.20bytes.txt
filE0002.20bytes.txt
filE0002.20bytes.txt
filE0002.20bytes.txt
filE0002.20bytes.txt
filE0002.20bytes.txt
filE0002.20bytes.txt
filE0002.20bytes.txt
filE0002.20bytes.txt
filE0002.20bytes.txt
filE0002.20bytes.txt
filE0002.20bytes.txt
filE0002.20bytes.txt
filE0002.20bytes.txt
filE0002.20bytes.txt
filE0002.20bytes.txt
filE0002.20bytes.txt
filE0002.20bytes.txt
filE0002.20bytes.txt
filE0002.20bytes.txt
filE0002.20bytes.txt
filE0002.20bytes.txt
filE0002.20bytes.txt
filE0002.20bytes.txt
filE0002.20bytes.txt
filE0002.20bytes.txt
filE0002.20bytes.txt
filE0002.20bytes.txt
filE0002.20bytes.txt
filE0002.20bytes.txt
filE0002.20bytes.txt
filE0002.20bytes.txt
filE0002.20bytes.txt
filE0002.20bytes.txt
filE0002.20bytes.txt
filE0002.20bytes.txt
filE0002.20bytes.txt
filE0002.20bytes.txt
filE0002.20bytes.txt
filE0002.20bytes.txt
filE0002.20bytes.txt
filE0002.20bytes.txt
filE0002.20bytes.txt
filE0002.20bytes.txt
filE0002.20bytes.txt
filE0002.20bytes.txt
filE0002.20bytes.txt
filE0002.20bytes.txt
filE0002.20bytes.txt
filE0002.20bytes.txt
filE0002.20bytes.txt
filE0002.20bytes.txt
filE0002.20bytes.txt
filE0002.20bytes.txt
filE0002.20bytes.txt
filE0002.20bytes.txt
filE0002.20bytes.txt
filE0002.20bytes.txt
filE0002.20bytes.txt
filE0002.20bytes.txt
filE0002.20bytes.txt
filE0002.20bytes.txt
filE0002.20bytes.txt
filE0002.20bytes.txt
filE0002.20bytes.txt
filE0002.20bytes.txt
filE0002.20bytes.txt
filE0002.20bytes.txt
filE0002.20bytes.txt
filE0002.20bytes.txt
filE0002.20bytes.txt
filE0002.20bytes.txt
filE0002.20bytes.txt
filE0002.20bytes.txt
filE0002.20bytes.txt
filE0002.20bytes.txt
filE0002.20bytes.txt
filE0002.20bytes.txt
filE0002.20bytes.txt
filE0002.20bytes.txt
filE0002.20bytes.txt
filE0002.20bytes.txt
filE0002.20bytes.txt
filE0002.20bytes.txt
filE0002.20bytes.txt
filE0002.20bytes.txt
filE0002.20bytes.txt
filE0002.20bytes.txt
filE0002.20bytes.txt
filE0002.20bytes.txt
filE0002.20bytes.txt
filE0002.20bytes.txt
filE0002.20bytes.txt
filE0002.20bytes.txt
filE0002.20bytes.txt
filE0002.20bytes.txt
filE0002.20bytes.txt
filE0002.20bytes.txt
filE0002.20bytes.txt
filE0002.20bytes.txt
filE0002.20bytes.txt
filE0002.20bytes.txt
filE0002.20bytes.txt
filE0002.20bytes.txt
filE0002.20bytes.txt
filE0002.20bytes.txt
filE0002.20bytes.txt
filE0002.20bytes.txt
filE0002.20bytes.txt
filE0002.20bytes.txt
filE0002.20bytes.txt
filE0002.20bytes.txt
filE0002.20bytes.txt
filE0002.20bytes.txt
filE0002.20bytes.txt
filE0002.20bytes.txt
filE0002.20bytes.txt
filE0002.20bytes.txt
filE0002.20bytes.txt
filE0002.20bytes.txt
filE0002.20bytes.txt
filE0002.20bytes.txt
filE0002.20bytes.txt
filE0002.20bytes.txt
filE0002.20bytes.txt
filE0002.20bytes.txt
filE0002.20bytes.txt
filE0002.20bytes.txt
filE0002.20bytes.txt
filE0002.20bytes.txt
filE0002.20bytes.txt
filE0002.20bytes.txt
filE0002.20bytes.txt
filE0002.20bytes.txt
filE0002.20bytes.txt
filE0002.20bytes.txt
filE0002.20bytes.txt
filE0002.20bytes.txt
filE0002.20bytes.txt
filE0002.20bytes.txt
filE0002.20bytes.txt
filE0002.20bytes.txt
filE0002.20bytes.txt
filE0002.20bytes.txt
filE0002.20bytes.txt
filE0002.20bytes.txt
filE0002.20bytes.txt
filE0002.20bytes.txt
filE0002.20bytes.txt
filE0002.20bytes.txt
filE0002.20bytes.txt
filE0002.20bytes.txt
filE0002.20bytes.txt
filE0002.20bytes.txt
filE0002.20bytes.txt
filE0002.20bytes.txt
filE0002.20bytes.txt
filE0002.20bytes.txt
filE0002.20bytes.txt
filE0002.20bytes.txt
filE0002.20bytes.txt
filE0002.20bytes.txt
filE0002.20bytes.txt
filE0002.20bytes.txt
filE0002.20bytes.txt
filE0002.20bytes.txt
filE0002.20bytes.txt
filE0002.20bytes.txt
filE0002.20bytes.txt
filE0002.20bytes.txt
filE0002.20bytes.txt
filE0002.20bytes.txt
filE0002.20bytes.txt
filE0002.20bytes.txt
filE0002.20bytes.txt
filE0002.20bytes.txt
filE0002.20bytes.txt
filE0002.20bytes.txt
filE0002.20bytes.txt
filE0002.20bytes.txt
filE0002.20bytes.txt
filE0002.20bytes.txt
filE0002.20bytes.txt
filE0002.20bytes.txt
filE0002.20bytes.txt
filE0002.20bytes.txt
filE0002.20bytes.txt
filE0002.20bytes.txt
filE0002.20bytes.txt
filE0002.20bytes.txt
filE0002.20bytes.txt
filE0002.20bytes.txt
filE0002.20bytes.txt
filE0002.20bytes.txt
filE0002.20bytes.txt
filE0002.20bytes.txt
filE0002.20bytes.txt
filE0002.20bytes.txt
filE0002.20bytes.txt
filE0002.20bytes.txt
filE0002.20bytes.txt
filE0002.20bytes.txt
filE0002.20bytes.txt
filE0002.20bytes.txt
filE0002.20bytes.txt
filE0002.20bytes.txt
filE0002.20bytes.txt
filE0002.20bytes.txt
filE0002.20bytes.txt
filE0002.20bytes.txt
filE0002.20bytes.txt
filE0002.20bytes.txt
filE0002.20bytes.txt
filE0002.20bytes.txt
filE0002.20bytes.txt
filE0002.20bytes.txt
filE0002.20bytes.txt
filE0002.20bytes.txt
filE0002.20bytes.txt
filE0002.20bytes.txt
filE0002.20bytes.txt
filE0002.20bytes.txt
filE0002.20bytes.txt
filE0002.20bytes.txt
filE0002.20bytes.txt
filE0002.20bytes.txt
filE0002.20bytes.txt
filE0002.20bytes.txt
filE0002.20bytes.txt